%YAML 1.1
%TAG !u! tag:unity3d.com,2011:
--- !u!1001 &7578002523751617457
PrefabInstance:
  m_ObjectHideFlags: 0
  serializedVersion: 2
  m_Modification:
    m_TransformParent: {fileID: 0}
    m_Modifications:
    - target: {fileID: 2963264364512367756, guid: 38b5870f2fc3d444eab0ef0b036a95c4,
        type: 3}
      propertyPath: m_Name
      value: Frame_Painting_Big_Downt_Left
      objectReference: {fileID: 0}
    - target: {fileID: 8631305423158100639, guid: 38b5870f2fc3d444eab0ef0b036a95c4,
        type: 3}
      propertyPath: m_LocalRotation.x
      value: -0
      objectReference: {fileID: 0}
    - target: {fileID: 8631305423158100639, guid: 38b5870f2fc3d444eab0ef0b036a95c4,
        type: 3}
      propertyPath: m_LocalRotation.y
      value: 0.00000037252897
      objectReference: {fileID: 0}
    - target: {fileID: 8631305423158100639, guid: 38b5870f2fc3d444eab0ef0b036a95c4,
        type: 3}
      propertyPath: m_LocalRotation.z
      value: -0
      objectReference: {fileID: 0}
    - target: {fileID: 8631305423158100639, guid: 38b5870f2fc3d444eab0ef0b036a95c4,
        type: 3}
      propertyPath: m_LocalRotation.w
      value: -1
      objectReference: {fileID: 0}
    - target: {fileID: 8631305423158100639, guid: 38b5870f2fc3d444eab0ef0b036a95c4,
        type: 3}
      propertyPath: m_RootOrder
      value: 0
      objectReference: {fileID: 0}
    - target: {fileID: 8631305423158100639, guid: 38b5870f2fc3d444eab0ef0b036a95c4,
        type: 3}
      propertyPath: m_LocalEulerAnglesHint.x
      value: 0
      objectReference: {fileID: 0}
    - target: {fileID: 8631305423158100639, guid: 38b5870f2fc3d444eab0ef0b036a95c4,
        type: 3}
      propertyPath: m_LocalEulerAnglesHint.y
      value: 0
      objectReference: {fileID: 0}
    - target: {fileID: 8631305423158100639, guid: 38b5870f2fc3d444eab0ef0b036a95c4,
        type: 3}
      propertyPath: m_LocalEulerAnglesHint.z
      value: 0
      objectReference: {fileID: 0}
    m_RemovedComponents: []
  m_SourcePrefab: {fileID: 100100000, guid: 38b5870f2fc3d444eab0ef0b036a95c4, type: 3}
