%YAML 1.1
%TAG !u! tag:unity3d.com,2011:
--- !u!114 &11400000
MonoBehaviour:
  m_ObjectHideFlags: 0
  m_CorrespondingSourceObject: {fileID: 0}
  m_PrefabInstance: {fileID: 0}
  m_PrefabAsset: {fileID: 0}
  m_GameObject: {fileID: 0}
  m_Enabled: 1
  m_EditorHideFlags: 0
  m_Script: {fileID: 11500000, guid: 8c064eaf9c6fcde47bfd7c2ee8ea0c0e, type: 3}
  m_Name: 7E9C581B-FBC0-4657-A368-4240FFAC1731
  m_EditorClassIdentifier: 
  objectName: PHONO_NiveauAngoisse4
  id: 786463471
  guid: 7E9C581B-FBC0-4657-A368-4240FFAC1731
  WwiseStateGroupReference: {fileID: 11400000, guid: c0dbc940faebc444484b6354926edc58,
    type: 2}
