%YAML 1.1
%TAG !u! tag:unity3d.com,2011:
--- !u!114 &11400000
MonoBehaviour:
  m_ObjectHideFlags: 0
  m_CorrespondingSourceObject: {fileID: 0}
  m_PrefabInstance: {fileID: 0}
  m_PrefabAsset: {fileID: 0}
  m_GameObject: {fileID: 0}
  m_Enabled: 1
  m_EditorHideFlags: 0
  m_Script: {fileID: 11500000, guid: 8c064eaf9c6fcde47bfd7c2ee8ea0c0e, type: 3}
  m_Name: A3893DFC-B14C-4ED9-8A74-2D2C3B2AB6C7
  m_EditorClassIdentifier: 
  objectName: PHONO_NiveauAngoisse6_1
  id: 2306976361
  guid: A3893DFC-B14C-4ED9-8A74-2D2C3B2AB6C7
  WwiseStateGroupReference: {fileID: 11400000, guid: c0dbc940faebc444484b6354926edc58,
    type: 2}
