%YAML 1.1
%TAG !u! tag:unity3d.com,2011:
--- !u!114 &2277217576620484782
MonoBehaviour:
  m_ObjectHideFlags: 0
  m_CorrespondingSourceObject: {fileID: 0}
  m_PrefabInstance: {fileID: 0}
  m_PrefabAsset: {fileID: 0}
  m_GameObject: {fileID: 6723972441301933596}
  m_Enabled: 1
  m_EditorHideFlags: 0
  m_Script: {fileID: 11500000, guid: 312482ada8ca2414ea7dd595f423e40c, type: 3}
  m_Name: 
  m_EditorClassIdentifier: 
  startOffset: {x: 0, y: 0, z: 0}
  danceRotation: {x: -11, y: 0, z: 0}
  danceAxis: {x: 0, y: 1, z: 0}
  danceSpeed: 3
--- !u!114 &1295904392093234027
MonoBehaviour:
  m_ObjectHideFlags: 0
  m_CorrespondingSourceObject: {fileID: 0}
  m_PrefabInstance: {fileID: 0}
  m_PrefabAsset: {fileID: 0}
  m_GameObject: {fileID: 2353056672591562668}
  m_Enabled: 1
  m_EditorHideFlags: 0
  m_Script: {fileID: 11500000, guid: f4e723822564c1846995ebfde4f171a1, type: 3}
  m_Name: 
  m_EditorClassIdentifier: 
  intensity: 0
  range: 0
  seqShutdown: 1
  startIntensity: 0
  startRange: 0
  shut: 0
--- !u!1001 &8086334935512860492
PrefabInstance:
  m_ObjectHideFlags: 0
  serializedVersion: 2
  m_Modification:
    m_TransformParent: {fileID: 0}
    m_Modifications:
    - target: {fileID: 1960031554102422339, guid: b55894e1cb0bebd4d8087f37660b38d9,
        type: 3}
      propertyPath: m_RootOrder
      value: 0
      objectReference: {fileID: 0}
    - target: {fileID: 1960031554102422339, guid: b55894e1cb0bebd4d8087f37660b38d9,
        type: 3}
      propertyPath: m_LocalEulerAnglesHint.x
      value: 0
      objectReference: {fileID: 0}
    - target: {fileID: 1960031554102422339, guid: b55894e1cb0bebd4d8087f37660b38d9,
        type: 3}
      propertyPath: m_LocalEulerAnglesHint.y
      value: 0
      objectReference: {fileID: 0}
    - target: {fileID: 1960031554102422339, guid: b55894e1cb0bebd4d8087f37660b38d9,
        type: 3}
      propertyPath: m_LocalEulerAnglesHint.z
      value: 0
      objectReference: {fileID: 0}
    - target: {fileID: 1960031554102422339, guid: b55894e1cb0bebd4d8087f37660b38d9,
        type: 3}
      propertyPath: m_LocalPosition.x
      value: 0
      objectReference: {fileID: 0}
    - target: {fileID: 1960031554102422339, guid: b55894e1cb0bebd4d8087f37660b38d9,
        type: 3}
      propertyPath: m_LocalPosition.y
      value: 0
      objectReference: {fileID: 0}
    - target: {fileID: 1960031554102422339, guid: b55894e1cb0bebd4d8087f37660b38d9,
        type: 3}
      propertyPath: m_LocalPosition.z
      value: 0
      objectReference: {fileID: 0}
    - target: {fileID: 3271926189714970960, guid: b55894e1cb0bebd4d8087f37660b38d9,
        type: 3}
      propertyPath: m_Name
      value: Lamp_Tall_Geo 4
      objectReference: {fileID: 0}
    m_RemovedComponents:
    - {fileID: 6723589210109408408, guid: b55894e1cb0bebd4d8087f37660b38d9, type: 3}
    - {fileID: 6556384318039591125, guid: b55894e1cb0bebd4d8087f37660b38d9, type: 3}
  m_SourcePrefab: {fileID: 100100000, guid: b55894e1cb0bebd4d8087f37660b38d9, type: 3}
--- !u!1 &6723972441301933596 stripped
GameObject:
  m_CorrespondingSourceObject: {fileID: 3271926189714970960, guid: b55894e1cb0bebd4d8087f37660b38d9,
    type: 3}
  m_PrefabInstance: {fileID: 8086334935512860492}
  m_PrefabAsset: {fileID: 0}
--- !u!1 &2353056672591562668 stripped
GameObject:
  m_CorrespondingSourceObject: {fileID: 5809593304500502752, guid: b55894e1cb0bebd4d8087f37660b38d9,
    type: 3}
  m_PrefabInstance: {fileID: 8086334935512860492}
  m_PrefabAsset: {fileID: 0}
