%YAML 1.1
%TAG !u! tag:unity3d.com,2011:
--- !u!1001 &2030993700295501981
PrefabInstance:
  m_ObjectHideFlags: 0
  serializedVersion: 2
  m_Modification:
    m_TransformParent: {fileID: 0}
    m_Modifications:
    - target: {fileID: -4216859302048453862, guid: 78a03de0b3c456142989fe99bd3e122c,
        type: 3}
      propertyPath: m_LocalPosition.x
      value: 0.058467865
      objectReference: {fileID: 0}
    - target: {fileID: -4216859302048453862, guid: 78a03de0b3c456142989fe99bd3e122c,
        type: 3}
      propertyPath: m_LocalPosition.y
      value: -3.953
      objectReference: {fileID: 0}
    - target: {fileID: -4216859302048453862, guid: 78a03de0b3c456142989fe99bd3e122c,
        type: 3}
      propertyPath: m_LocalPosition.z
      value: -4.041128
      objectReference: {fileID: 0}
    - target: {fileID: -4216859302048453862, guid: 78a03de0b3c456142989fe99bd3e122c,
        type: 3}
      propertyPath: m_LocalRotation.x
      value: -0
      objectReference: {fileID: 0}
    - target: {fileID: -4216859302048453862, guid: 78a03de0b3c456142989fe99bd3e122c,
        type: 3}
      propertyPath: m_LocalRotation.y
      value: -0
      objectReference: {fileID: 0}
    - target: {fileID: -4216859302048453862, guid: 78a03de0b3c456142989fe99bd3e122c,
        type: 3}
      propertyPath: m_LocalRotation.z
      value: -0
      objectReference: {fileID: 0}
    - target: {fileID: -4216859302048453862, guid: 78a03de0b3c456142989fe99bd3e122c,
        type: 3}
      propertyPath: m_LocalRotation.w
      value: 1
      objectReference: {fileID: 0}
    - target: {fileID: -4216859302048453862, guid: 78a03de0b3c456142989fe99bd3e122c,
        type: 3}
      propertyPath: m_RootOrder
      value: 0
      objectReference: {fileID: 0}
    - target: {fileID: -4216859302048453862, guid: 78a03de0b3c456142989fe99bd3e122c,
        type: 3}
      propertyPath: m_LocalEulerAnglesHint.x
      value: 0
      objectReference: {fileID: 0}
    - target: {fileID: -4216859302048453862, guid: 78a03de0b3c456142989fe99bd3e122c,
        type: 3}
      propertyPath: m_LocalEulerAnglesHint.y
      value: 0
      objectReference: {fileID: 0}
    - target: {fileID: -4216859302048453862, guid: 78a03de0b3c456142989fe99bd3e122c,
        type: 3}
      propertyPath: m_LocalEulerAnglesHint.z
      value: 0
      objectReference: {fileID: 0}
    - target: {fileID: -927199367670048503, guid: 78a03de0b3c456142989fe99bd3e122c,
        type: 3}
      propertyPath: m_Name
      value: Rug_Geo
      objectReference: {fileID: 0}
    m_RemovedComponents: []
  m_SourcePrefab: {fileID: 100100000, guid: 78a03de0b3c456142989fe99bd3e122c, type: 3}
