%YAML 1.1
%TAG !u! tag:unity3d.com,2011:
--- !u!114 &11400000
MonoBehaviour:
  m_ObjectHideFlags: 0
  m_CorrespondingSourceObject: {fileID: 0}
  m_PrefabInstance: {fileID: 0}
  m_PrefabAsset: {fileID: 0}
  m_GameObject: {fileID: 0}
  m_Enabled: 1
  m_EditorHideFlags: 0
  m_Script: {fileID: 11500000, guid: 2a5c88ba0e8ae6146887ffeb84f22944, type: 3}
  m_Name: 65314296-25C8-4BBD-8DC1-8CA1A1E634EE
  m_EditorClassIdentifier: 
  objectName: Play_Fol_Chaise1_Chuchotis1
  id: 2782296144
  guid: 65314296-25C8-4BBD-8DC1-8CA1A1E634EE
