%YAML 1.1
%TAG !u! tag:unity3d.com,2011:
--- !u!114 &11400000
MonoBehaviour:
  m_ObjectHideFlags: 0
  m_CorrespondingSourceObject: {fileID: 0}
  m_PrefabInstance: {fileID: 0}
  m_PrefabAsset: {fileID: 0}
  m_GameObject: {fileID: 0}
  m_Enabled: 1
  m_EditorHideFlags: 0
  m_Script: {fileID: 11500000, guid: 2a5c88ba0e8ae6146887ffeb84f22944, type: 3}
  m_Name: 7F975A68-FB08-41B7-BFC5-1F5392D7289E
  m_EditorClassIdentifier: 
  objectName: Play_Fol_Chaises_DeplacentLOOP
  id: 1151522189
  guid: 7F975A68-FB08-41B7-BFC5-1F5392D7289E
