%YAML 1.1
%TAG !u! tag:unity3d.com,2011:
--- !u!114 &11400000
MonoBehaviour:
  m_ObjectHideFlags: 0
  m_CorrespondingSourceObject: {fileID: 0}
  m_PrefabInstance: {fileID: 0}
  m_PrefabAsset: {fileID: 0}
  m_GameObject: {fileID: 0}
  m_Enabled: 1
  m_EditorHideFlags: 0
  m_Script: {fileID: 11500000, guid: 300ec9a305fb06f4199c4fcfce9a4c44, type: 3}
  m_Name: DefaultPlayerData 1
  m_EditorClassIdentifier: 
  keyboard:
    lookSensitivity: 10
    clampLook: {x: -45, y: 45}
    moveSpeed: 2
    floatSpeed: 1
    normalInterp: 2
  gamepad:
    lookSensitivity: 100
    clampLook: {x: -45, y: 45}
    moveSpeed: 2
    floatSpeed: 1
    normalInterp: 2
  usingKeyboard: 0
  focusRange: 15
  interactRange: 1.66
  wallWalkRange: 1
