%YAML 1.1
%TAG !u! tag:unity3d.com,2011:
--- !u!114 &11400000
MonoBehaviour:
  m_ObjectHideFlags: 0
  m_CorrespondingSourceObject: {fileID: 0}
  m_PrefabInstance: {fileID: 0}
  m_PrefabAsset: {fileID: 0}
  m_GameObject: {fileID: 0}
  m_Enabled: 1
  m_EditorHideFlags: 0
  m_Script: {fileID: 11500000, guid: 8edc6f3309ec92747b914e59288c20f7, type: 3}
  m_Name: 4C702323-56DD-48D6-A479-5B9294A26F1A
  m_EditorClassIdentifier: 
  objectName: TableauFocal
  id: 3691366952
  guid: 4C702323-56DD-48D6-A479-5B9294A26F1A
