%YAML 1.1
%TAG !u! tag:unity3d.com,2011:
--- !u!1001 &1703415742852280860
PrefabInstance:
  m_ObjectHideFlags: 0
  serializedVersion: 2
  m_Modification:
    m_TransformParent: {fileID: 0}
    m_Modifications:
    - target: {fileID: 1879414486, guid: 92c7b1fe423f477408d2ce1302b28d42, type: 3}
      propertyPath: m_Intensity
      value: 1
      objectReference: {fileID: 0}
    - target: {fileID: 1879414487, guid: 92c7b1fe423f477408d2ce1302b28d42, type: 3}
      propertyPath: m_Intensity
      value: 0.07957747
      objectReference: {fileID: 0}
    - target: {fileID: 1879414487, guid: 92c7b1fe423f477408d2ce1302b28d42, type: 3}
      propertyPath: m_UseColorTemperature
      value: 1
      objectReference: {fileID: 0}
    - target: {fileID: 1879414487, guid: 92c7b1fe423f477408d2ce1302b28d42, type: 3}
      propertyPath: m_Range
      value: 1
      objectReference: {fileID: 0}
    - target: {fileID: 5340507181349526919, guid: 92c7b1fe423f477408d2ce1302b28d42,
        type: 3}
      propertyPath: m_Name
      value: Lamp_Small_Geo
      objectReference: {fileID: 0}
    - target: {fileID: 8954865956951437204, guid: 92c7b1fe423f477408d2ce1302b28d42,
        type: 3}
      propertyPath: m_LocalPosition.x
      value: -3.033001
      objectReference: {fileID: 0}
    - target: {fileID: 8954865956951437204, guid: 92c7b1fe423f477408d2ce1302b28d42,
        type: 3}
      propertyPath: m_LocalPosition.y
      value: -0.5670004
      objectReference: {fileID: 0}
    - target: {fileID: 8954865956951437204, guid: 92c7b1fe423f477408d2ce1302b28d42,
        type: 3}
      propertyPath: m_LocalPosition.z
      value: 0.20299965
      objectReference: {fileID: 0}
    - target: {fileID: 8954865956951437204, guid: 92c7b1fe423f477408d2ce1302b28d42,
        type: 3}
      propertyPath: m_LocalRotation.x
      value: -0
      objectReference: {fileID: 0}
    - target: {fileID: 8954865956951437204, guid: 92c7b1fe423f477408d2ce1302b28d42,
        type: 3}
      propertyPath: m_LocalRotation.y
      value: -0
      objectReference: {fileID: 0}
    - target: {fileID: 8954865956951437204, guid: 92c7b1fe423f477408d2ce1302b28d42,
        type: 3}
      propertyPath: m_LocalRotation.z
      value: -0
      objectReference: {fileID: 0}
    - target: {fileID: 8954865956951437204, guid: 92c7b1fe423f477408d2ce1302b28d42,
        type: 3}
      propertyPath: m_LocalRotation.w
      value: 1
      objectReference: {fileID: 0}
    - target: {fileID: 8954865956951437204, guid: 92c7b1fe423f477408d2ce1302b28d42,
        type: 3}
      propertyPath: m_RootOrder
      value: 0
      objectReference: {fileID: 0}
    - target: {fileID: 8954865956951437204, guid: 92c7b1fe423f477408d2ce1302b28d42,
        type: 3}
      propertyPath: m_LocalEulerAnglesHint.x
      value: 0
      objectReference: {fileID: 0}
    - target: {fileID: 8954865956951437204, guid: 92c7b1fe423f477408d2ce1302b28d42,
        type: 3}
      propertyPath: m_LocalEulerAnglesHint.y
      value: 0
      objectReference: {fileID: 0}
    - target: {fileID: 8954865956951437204, guid: 92c7b1fe423f477408d2ce1302b28d42,
        type: 3}
      propertyPath: m_LocalEulerAnglesHint.z
      value: 0
      objectReference: {fileID: 0}
    m_RemovedComponents: []
  m_SourcePrefab: {fileID: 100100000, guid: 92c7b1fe423f477408d2ce1302b28d42, type: 3}
