%YAML 1.1
%TAG !u! tag:unity3d.com,2011:
--- !u!114 &11400000
MonoBehaviour:
  m_ObjectHideFlags: 0
  m_CorrespondingSourceObject: {fileID: 0}
  m_PrefabInstance: {fileID: 0}
  m_PrefabAsset: {fileID: 0}
  m_GameObject: {fileID: 0}
  m_Enabled: 1
  m_EditorHideFlags: 0
  m_Script: {fileID: 11500000, guid: a9405e813b147c644b9f1ae6e55a6655, type: 3}
  m_Name: AkWwiseProjectData
  m_EditorClassIdentifier: 
  AcousticTextureWwu:
  - PhysicalPath: Virtual Acoustics\Default Work Unit.wwu
    ParentPath: Default Work Unit
    guid: 243ee48de1a135458d440d5dddcf218e
    GuidInternal: 
    m_lastTime: -8586021125552349279
    List: []
  - PhysicalPath: Virtual Acoustics\Factory Reflect Acoustic Textures.wwu
    ParentPath: Factory Reflect Acoustic Textures
    guid: 6b663d46a83ca54f8b4a5fef12b883f6
    GuidInternal: 
    m_lastTime: -8586021125552349279
    List:
    - name: Acoustic_Banner
      guid: f2532d2fccda8e408b8898b1b52a26d6
      id: 4168643977
      PathAndIcons:
      - ElementName: Factory Reflect Acoustic Textures
        ObjectType: 12
      - ElementName: Textures
        ObjectType: 4
      - ElementName: Acoustic_Banner
        ObjectType: 15
      Path: Factory Reflect Acoustic Textures\Textures\Acoustic_Banner
    - name: Anechoic
      guid: 32c20a8be202de4ebeacfdd1a900e3ed
      id: 1873957695
      PathAndIcons:
      - ElementName: Factory Reflect Acoustic Textures
        ObjectType: 12
      - ElementName: Textures
        ObjectType: 4
      - ElementName: Anechoic
        ObjectType: 15
      Path: Factory Reflect Acoustic Textures\Textures\Anechoic
    - name: Brick
      guid: a9a586b004f2534ca838bdb18b18f6d6
      id: 504532776
      PathAndIcons:
      - ElementName: Factory Reflect Acoustic Textures
        ObjectType: 12
      - ElementName: Textures
        ObjectType: 4
      - ElementName: Brick
        ObjectType: 15
      Path: Factory Reflect Acoustic Textures\Textures\Brick
    - name: Carpet
      guid: 8975223456dc604296c4b9f4b669092b
      id: 2412606308
      PathAndIcons:
      - ElementName: Factory Reflect Acoustic Textures
        ObjectType: 12
      - ElementName: Textures
        ObjectType: 4
      - ElementName: Carpet
        ObjectType: 15
      Path: Factory Reflect Acoustic Textures\Textures\Carpet
    - name: Concrete
      guid: 001cf85c9628e04aaf7c3080bdaba682
      id: 841620460
      PathAndIcons:
      - ElementName: Factory Reflect Acoustic Textures
        ObjectType: 12
      - ElementName: Textures
        ObjectType: 4
      - ElementName: Concrete
        ObjectType: 15
      Path: Factory Reflect Acoustic Textures\Textures\Concrete
    - name: Cork_Tiles
      guid: 19c9d2305f92434189063dbb3c4ae5e2
      id: 3195498748
      PathAndIcons:
      - ElementName: Factory Reflect Acoustic Textures
        ObjectType: 12
      - ElementName: Textures
        ObjectType: 4
      - ElementName: Cork_Tiles
        ObjectType: 15
      Path: Factory Reflect Acoustic Textures\Textures\Cork_Tiles
    - name: Curtains
      guid: 339ee6f8975c6849b508a1535f2d66e8
      id: 2928161104
      PathAndIcons:
      - ElementName: Factory Reflect Acoustic Textures
        ObjectType: 12
      - ElementName: Textures
        ObjectType: 4
      - ElementName: Curtains
        ObjectType: 15
      Path: Factory Reflect Acoustic Textures\Textures\Curtains
    - name: Drywall
      guid: f4e3a4680b4c8746a8b8a84db93dbc8f
      id: 3670307564
      PathAndIcons:
      - ElementName: Factory Reflect Acoustic Textures
        ObjectType: 12
      - ElementName: Textures
        ObjectType: 4
      - ElementName: Drywall
        ObjectType: 15
      Path: Factory Reflect Acoustic Textures\Textures\Drywall
    - name: Fabric
      guid: 32d581836edbed4ea7a3bc7b0a0b8ba8
      id: 1970351858
      PathAndIcons:
      - ElementName: Factory Reflect Acoustic Textures
        ObjectType: 12
      - ElementName: Textures
        ObjectType: 4
      - ElementName: Fabric
        ObjectType: 15
      Path: Factory Reflect Acoustic Textures\Textures\Fabric
    - name: Mountain
      guid: 313793c51a00b44a98dd9b033a8c8eab
      id: 513139656
      PathAndIcons:
      - ElementName: Factory Reflect Acoustic Textures
        ObjectType: 12
      - ElementName: Textures
        ObjectType: 4
      - ElementName: Mountain
        ObjectType: 15
      Path: Factory Reflect Acoustic Textures\Textures\Mountain
    - name: Textures
      guid: a3121e7828e3df4a8bba5fb89c74031d
      id: 1276632493
      PathAndIcons:
      - ElementName: Factory Reflect Acoustic Textures
        ObjectType: 12
      - ElementName: Textures
        ObjectType: 4
      - ElementName: Textures
        ObjectType: 15
      Path: Factory Reflect Acoustic Textures\Textures\Textures
    - name: Tile
      guid: c4da82a82a13b747ba9db9907ba29cc0
      id: 2637588553
      PathAndIcons:
      - ElementName: Factory Reflect Acoustic Textures
        ObjectType: 12
      - ElementName: Textures
        ObjectType: 4
      - ElementName: Tile
        ObjectType: 15
      Path: Factory Reflect Acoustic Textures\Textures\Tile
    - name: Wood
      guid: 96bcff1fe76f9e48ba6c7c14a71391ae
      id: 2058049674
      PathAndIcons:
      - ElementName: Factory Reflect Acoustic Textures
        ObjectType: 12
      - ElementName: Textures
        ObjectType: 4
      - ElementName: Wood
        ObjectType: 15
      Path: Factory Reflect Acoustic Textures\Textures\Wood
    - name: Wood_Bright
      guid: e5d1857ba2c1634e9a13cec54b641adc
      id: 4262522749
      PathAndIcons:
      - ElementName: Factory Reflect Acoustic Textures
        ObjectType: 12
      - ElementName: Textures
        ObjectType: 4
      - ElementName: Wood_Bright
        ObjectType: 15
      Path: Factory Reflect Acoustic Textures\Textures\Wood_Bright
    - name: Wood_Deep
      guid: 8e474652dac50c4ea0dec98d1479529a
      id: 1755085759
      PathAndIcons:
      - ElementName: Factory Reflect Acoustic Textures
        ObjectType: 12
      - ElementName: Textures
        ObjectType: 4
      - ElementName: Wood_Deep
        ObjectType: 15
      Path: Factory Reflect Acoustic Textures\Textures\Wood_Deep
  AuxBusWwu:
  - PhysicalPath: Master-Mixer Hierarchy\Default Work Unit.wwu
    ParentPath: Default Work Unit
    guid: 057fd52e9dd71e4e8f22b0e33d87b9bc
    GuidInternal: 
    m_lastTime: -8585953473855232521
    List:
    - name: AMBIENCES
      guid: 0100900a11868642ba96de64bd8805f4
      id: 1017660616
      PathAndIcons:
      - ElementName: Default Work Unit
        ObjectType: 12
      - ElementName: Master Audio Bus
        ObjectType: 2
      - ElementName: AMBIENCES
        ObjectType: 2
      Path: Default Work Unit\Master Audio Bus\AMBIENCES
    - name: Ambiences_Emitter
      guid: f9e3c8ddef532649877612a98168fceb
      id: 1434235487
      PathAndIcons:
      - ElementName: Default Work Unit
        ObjectType: 12
      - ElementName: Master Audio Bus
        ObjectType: 2
      - ElementName: AMBIENCES
        ObjectType: 2
      - ElementName: Ambiences_Emitter
        ObjectType: 2
      Path: Default Work Unit\Master Audio Bus\AMBIENCES\Ambiences_Emitter
    - name: FOLEYS
      guid: 90ce8b63c1ef7e4fa29bf7f93405bf11
      id: 4035004657
      PathAndIcons:
      - ElementName: Default Work Unit
        ObjectType: 12
      - ElementName: Master Audio Bus
        ObjectType: 2
      - ElementName: FOLEYS
        ObjectType: 2
      Path: Default Work Unit\Master Audio Bus\FOLEYS
    - name: FX-Theme
      guid: ffce16b87439da49946ccd89942b22b5
      id: 1600651075
      PathAndIcons:
      - ElementName: Default Work Unit
        ObjectType: 12
      - ElementName: Master Audio Bus
        ObjectType: 2
      - ElementName: FX-Theme
        ObjectType: 2
      Path: Default Work Unit\Master Audio Bus\FX-Theme
    - name: Master Audio Bus
      guid: d8a41415a61d2a41a17e75ca0c2149f3
      id: 3803692087
      PathAndIcons:
      - ElementName: Default Work Unit
        ObjectType: 12
      - ElementName: Master Audio Bus
        ObjectType: 2
      Path: Default Work Unit\Master Audio Bus
    - name: Motion Factory Bus
      guid: c6b9f92af16ee946b5f2e30c9e602c74
      id: 985987111
      PathAndIcons:
      - ElementName: Default Work Unit
        ObjectType: 12
      - ElementName: Motion Factory Bus
        ObjectType: 2
      Path: Default Work Unit\Motion Factory Bus
    - name: PERSONNAGE
      guid: 3e85ac6dc6497c48b626d40c2f10a449
      id: 2307968525
      PathAndIcons:
      - ElementName: Default Work Unit
        ObjectType: 12
      - ElementName: Master Audio Bus
        ObjectType: 2
      - ElementName: PERSONNAGE
        ObjectType: 2
      Path: Default Work Unit\Master Audio Bus\PERSONNAGE
    - name: ReverbEntrepot
      guid: 69d6c1936d7e494dac26f9f27aa67970
      id: 3564767884
      PathAndIcons:
      - ElementName: Default Work Unit
        ObjectType: 12
      - ElementName: Master Audio Bus
        ObjectType: 2
      - ElementName: ReverbEntrepot
        ObjectType: 1
      Path: Default Work Unit\Master Audio Bus\ReverbEntrepot
    - name: ReverbIrreel
      guid: a55de644f8b1004f8845e90772c364c4
      id: 682014184
      PathAndIcons:
      - ElementName: Default Work Unit
        ObjectType: 12
      - ElementName: Master Audio Bus
        ObjectType: 2
      - ElementName: ReverbIrreel
        ObjectType: 1
      Path: Default Work Unit\Master Audio Bus\ReverbIrreel
    - name: ReverbSalon
      guid: 41ba0c1995f5ea4f948e86be8b29e5c1
      id: 3052268332
      PathAndIcons:
      - ElementName: Default Work Unit
        ObjectType: 12
      - ElementName: Master Audio Bus
        ObjectType: 2
      - ElementName: ReverbSalon
        ObjectType: 1
      Path: Default Work Unit\Master Audio Bus\ReverbSalon
    - name: VOIX
      guid: fb339d91b736b54089d4cb8e909fef68
      id: 3370469991
      PathAndIcons:
      - ElementName: Default Work Unit
        ObjectType: 12
      - ElementName: Master Audio Bus
        ObjectType: 2
      - ElementName: VOIX
        ObjectType: 2
      Path: Default Work Unit\Master Audio Bus\VOIX
  BankWwu:
  - PhysicalPath: SoundBanks\Default Work Unit.wwu
    ParentPath: Default Work Unit
    guid: 109d4764e00c3f4290831e91747ceabd
    GuidInternal: 
    m_lastTime: -8585951746400246000
    List:
    - name: Manoir
      guid: 9f1e2c4624c4194fa510bec149a97da3
      id: 3294054859
      PathAndIcons:
      - ElementName: Default Work Unit
        ObjectType: 12
      - ElementName: Manoir
        ObjectType: 7
      Path: Default Work Unit\Manoir
    - name: SoundbankEND
      guid: d1e2018541c9044c9c1a8c20262436df
      id: 3844605687
      PathAndIcons:
      - ElementName: Default Work Unit
        ObjectType: 12
      - ElementName: SoundbankEND
        ObjectType: 7
      Path: Default Work Unit\SoundbankEND
  EventWwu:
  - PhysicalPath: Events\Default Work Unit.wwu
    ParentPath: Default Work Unit
    guid: 70162c5163897e4097a70184529d4257
    GuidInternal: 
    m_lastTime: -8585951746400246000
    List:
    - name: AMBIENCES
      guid: b71f48cc1852dd498815b947e588ff46
      id: 1017660616
      PathAndIcons:
      - ElementName: Default Work Unit
        ObjectType: 12
      - ElementName: AMBIENCES
        ObjectType: 4
      - ElementName: AMBIENCES
        ObjectType: 3
      Path: Default Work Unit\AMBIENCES\AMBIENCES
      maxAttenuation: 0
      maxDuration: -1
      minDuration: -1
    - name: Entrepot
      guid: 358d2beae008b140ae84903c203e713b
      id: 1684988604
      PathAndIcons:
      - ElementName: Default Work Unit
        ObjectType: 12
      - ElementName: VOIX
        ObjectType: 4
      - ElementName: Entrepot
        ObjectType: 4
      - ElementName: Entrepot
        ObjectType: 3
      Path: Default Work Unit\VOIX\Entrepot\Entrepot
      maxAttenuation: 0
      maxDuration: -1
      minDuration: -1
    - name: Fol_Lumiere
      guid: 72b225953db7274493d1d4cee2bd500a
      id: 2859708654
      PathAndIcons:
      - ElementName: Default Work Unit
        ObjectType: 12
      - ElementName: FOLEYS
        ObjectType: 4
      - ElementName: Fol_Lumiere
        ObjectType: 4
      - ElementName: Fol_Lumiere
        ObjectType: 3
      Path: Default Work Unit\FOLEYS\Fol_Lumiere\Fol_Lumiere
      maxAttenuation: 0
      maxDuration: -1
      minDuration: -1
    - name: Fol_Phonographe
      guid: a9467207bf9c2e449d519a285d3f6f9a
      id: 1463495026
      PathAndIcons:
      - ElementName: Default Work Unit
        ObjectType: 12
      - ElementName: FOLEYS
        ObjectType: 4
      - ElementName: Fol_Phonographe
        ObjectType: 4
      - ElementName: Fol_Phonographe
        ObjectType: 3
      Path: Default Work Unit\FOLEYS\Fol_Phonographe\Fol_Phonographe
      maxAttenuation: 0
      maxDuration: -1
      minDuration: -1
    - name: Fol_Porte
      guid: bd7ad064544e1f4bbd7bb36cb70d7845
      id: 4115321195
      PathAndIcons:
      - ElementName: Default Work Unit
        ObjectType: 12
      - ElementName: FOLEYS
        ObjectType: 4
      - ElementName: Fol_Porte
        ObjectType: 4
      - ElementName: Fol_Porte
        ObjectType: 3
      Path: Default Work Unit\FOLEYS\Fol_Porte\Fol_Porte
      maxAttenuation: 0
      maxDuration: -1
      minDuration: -1
    - name: FOLEYS
      guid: cffbd194493ee0499172cfb386cfa683
      id: 4035004657
      PathAndIcons:
      - ElementName: Default Work Unit
        ObjectType: 12
      - ElementName: FOLEYS
        ObjectType: 4
      - ElementName: FOLEYS
        ObjectType: 3
      Path: Default Work Unit\FOLEYS\FOLEYS
      maxAttenuation: 0
      maxDuration: -1
      minDuration: -1
    - name: Fol-Telephone
      guid: 7747d259d9d50447b7486d05c5865c56
      id: 2249759495
      PathAndIcons:
      - ElementName: Default Work Unit
        ObjectType: 12
      - ElementName: FOLEYS
        ObjectType: 4
      - ElementName: Fol-Telephone
        ObjectType: 4
      - ElementName: Fol-Telephone
        ObjectType: 3
      Path: Default Work Unit\FOLEYS\Fol-Telephone\Fol-Telephone
      maxAttenuation: 0
      maxDuration: -1
      minDuration: -1
    - name: FX- UI
      guid: 7e0b1de9b3154d4e8200c1fbff0613f3
      id: 3068242586
      PathAndIcons:
      - ElementName: Default Work Unit
        ObjectType: 12
      - ElementName: FX- UI
        ObjectType: 4
      - ElementName: FX- UI
        ObjectType: 3
      Path: Default Work Unit\FX- UI\FX- UI
      maxAttenuation: 0
      maxDuration: -1
      minDuration: -1
    - name: FX_Tabelau_Passage
      guid: 1826fa0f96313448928d1218eb42b7f2
      id: 1201387687
      PathAndIcons:
      - ElementName: Default Work Unit
        ObjectType: 12
      - ElementName: FX- UI
        ObjectType: 4
      - ElementName: FX_Tabelau_Passage
        ObjectType: 4
      - ElementName: FX_Tabelau_Passage
        ObjectType: 3
      Path: Default Work Unit\FX- UI\FX_Tabelau_Passage\FX_Tabelau_Passage
      maxAttenuation: 0
      maxDuration: -1
      minDuration: -1
    - name: Perso_Footsteps
      guid: ae1ad688626a2e4b8c4ec9d26ea287c1
      id: 3860270800
      PathAndIcons:
      - ElementName: Default Work Unit
        ObjectType: 12
      - ElementName: PERSONNAGE
        ObjectType: 4
      - ElementName: Perso_Footsteps
        ObjectType: 4
      - ElementName: Perso_Footsteps
        ObjectType: 3
      Path: Default Work Unit\PERSONNAGE\Perso_Footsteps\Perso_Footsteps
      maxAttenuation: 0
      maxDuration: -1
      minDuration: -1
    - name: Perso_Respirations
      guid: f88c79ec0688cb448c2b71b478e64da8
      id: 3583919194
      PathAndIcons:
      - ElementName: Default Work Unit
        ObjectType: 12
      - ElementName: PERSONNAGE
        ObjectType: 4
      - ElementName: Perso_Respirations
        ObjectType: 4
      - ElementName: Perso_Respirations
        ObjectType: 3
      Path: Default Work Unit\PERSONNAGE\Perso_Respirations\Perso_Respirations
      maxAttenuation: 0
      maxDuration: -1
      minDuration: -1
    - name: PERSONNAGE
      guid: 7839de939a0bc24688039d1b7e069ab8
      id: 2307968525
      PathAndIcons:
      - ElementName: Default Work Unit
        ObjectType: 12
      - ElementName: PERSONNAGE
        ObjectType: 4
      - ElementName: PERSONNAGE
        ObjectType: 3
      Path: Default Work Unit\PERSONNAGE\PERSONNAGE
      maxAttenuation: 0
      maxDuration: -1
      minDuration: -1
    - name: Play_Amb_Entrepot
      guid: 01187a7bf955eb49b68fd1f16369736b
      id: 331413848
      PathAndIcons:
      - ElementName: Default Work Unit
        ObjectType: 12
      - ElementName: AMBIENCES
        ObjectType: 4
      - ElementName: Play_Amb_Entrepot
        ObjectType: 3
      Path: Default Work Unit\AMBIENCES\Play_Amb_Entrepot
      maxAttenuation: 0
      maxDuration: -1
      minDuration: -1
    - name: Play_Amb_Entrepot_fin
      guid: 39ef2acfced0624b9af0ef365a945951
      id: 2609580526
      PathAndIcons:
      - ElementName: Default Work Unit
        ObjectType: 12
      - ElementName: AMBIENCES
        ObjectType: 4
      - ElementName: Play_Amb_Entrepot_fin
        ObjectType: 3
      Path: Default Work Unit\AMBIENCES\Play_Amb_Entrepot_fin
      maxAttenuation: 0
      maxDuration: -1
      minDuration: -1
    - name: Play_Amb_Menu
      guid: e0111078325fd14eb02f97f681b30e31
      id: 1989837964
      PathAndIcons:
      - ElementName: Default Work Unit
        ObjectType: 12
      - ElementName: AMBIENCES
        ObjectType: 4
      - ElementName: Play_Amb_Menu
        ObjectType: 3
      Path: Default Work Unit\AMBIENCES\Play_Amb_Menu
      maxAttenuation: 0
      maxDuration: -1
      minDuration: -1
    - name: Play_Amb_Sas
      guid: e2020f2d73b36140a77d6ea194c2b246
      id: 928165024
      PathAndIcons:
      - ElementName: Default Work Unit
        ObjectType: 12
      - ElementName: AMBIENCES
        ObjectType: 4
      - ElementName: Play_Amb_Sas
        ObjectType: 3
      Path: Default Work Unit\AMBIENCES\Play_Amb_Sas
      maxAttenuation: 0
      maxDuration: -1
      minDuration: -1
    - name: Play_Amb_Vest_Emitter_Lumiere
      guid: ca1425a56f5a774f93b065a55f6ff74d
      id: 1733548302
      PathAndIcons:
      - ElementName: Default Work Unit
        ObjectType: 12
      - ElementName: AMBIENCES
        ObjectType: 4
      - ElementName: Play_Amb_Vest_Emitter_Lumiere
        ObjectType: 3
      Path: Default Work Unit\AMBIENCES\Play_Amb_Vest_Emitter_Lumiere
      maxAttenuation: 0
      maxDuration: -1
      minDuration: -1
    - name: Play_Amb_Vest_SShots_Bois_STATES
      guid: 5d3f39786555e341a605f9c46ed265a3
      id: 4168895155
      PathAndIcons:
      - ElementName: Default Work Unit
        ObjectType: 12
      - ElementName: AMBIENCES
        ObjectType: 4
      - ElementName: Play_Amb_Vest_SShots_Bois_STATES
        ObjectType: 3
      Path: Default Work Unit\AMBIENCES\Play_Amb_Vest_SShots_Bois_STATES
      maxAttenuation: 0
      maxDuration: -1
      minDuration: -1
    - name: Play_Amb_Vest_SShots_Chuchotis_STATES
      guid: 957b28dd48a7e548b76e9bf476da5582
      id: 4092207124
      PathAndIcons:
      - ElementName: Default Work Unit
        ObjectType: 12
      - ElementName: AMBIENCES
        ObjectType: 4
      - ElementName: Play_Amb_Vest_SShots_Chuchotis_STATES
        ObjectType: 3
      Path: Default Work Unit\AMBIENCES\Play_Amb_Vest_SShots_Chuchotis_STATES
      maxAttenuation: 0
      maxDuration: -1
      minDuration: -1
    - name: Play_Amb_Vestibule_Bed_STATES
      guid: 32341b42b599ad46ab0d9ed1b99719b3
      id: 1462214091
      PathAndIcons:
      - ElementName: Default Work Unit
        ObjectType: 12
      - ElementName: AMBIENCES
        ObjectType: 4
      - ElementName: Play_Amb_Vestibule_Bed_STATES
        ObjectType: 3
      Path: Default Work Unit\AMBIENCES\Play_Amb_Vestibule_Bed_STATES
      maxAttenuation: 0
      maxDuration: -1
      minDuration: -1
    - name: Play_Amb_Vestibule_RetrecissementSALLE7
      guid: 001e61a87d86c749b283c4a919f159b4
      id: 2294713884
      PathAndIcons:
      - ElementName: Default Work Unit
        ObjectType: 12
      - ElementName: AMBIENCES
        ObjectType: 4
      - ElementName: Play_Amb_Vestibule_RetrecissementSALLE7
        ObjectType: 3
      Path: Default Work Unit\AMBIENCES\Play_Amb_Vestibule_RetrecissementSALLE7
      maxAttenuation: 0
      maxDuration: -1
      minDuration: -1
    - name: Play_Fol_Chaise1_Chuchotis1
      guid: 96423165c825bd4b8dc18ca1a1e634ee
      id: 2782296144
      PathAndIcons:
      - ElementName: Default Work Unit
        ObjectType: 12
      - ElementName: FOLEYS
        ObjectType: 4
      - ElementName: Play_Fol_Chaise1_Chuchotis1
        ObjectType: 3
      Path: Default Work Unit\FOLEYS\Play_Fol_Chaise1_Chuchotis1
      maxAttenuation: 0
      maxDuration: -1
      minDuration: -1
    - name: Play_Fol_Chaise2_Chuchotis1
      guid: 1c9bb3a7c92f8645ad688c23e9b6e882
      id: 4081192429
      PathAndIcons:
      - ElementName: Default Work Unit
        ObjectType: 12
      - ElementName: FOLEYS
        ObjectType: 4
      - ElementName: Play_Fol_Chaise2_Chuchotis1
        ObjectType: 3
      Path: Default Work Unit\FOLEYS\Play_Fol_Chaise2_Chuchotis1
      maxAttenuation: 0
      maxDuration: -1
      minDuration: -1
    - name: Play_Fol_Chaise3_Chuchotis1
      guid: de39d38405655c4dbce95aa23a825685
      id: 15505242
      PathAndIcons:
      - ElementName: Default Work Unit
        ObjectType: 12
      - ElementName: FOLEYS
        ObjectType: 4
      - ElementName: Play_Fol_Chaise3_Chuchotis1
        ObjectType: 3
      Path: Default Work Unit\FOLEYS\Play_Fol_Chaise3_Chuchotis1
      maxAttenuation: 0
      maxDuration: -1
      minDuration: -1
    - name: Play_Fol_Chaise4_Chuchotis1
      guid: a04f94a42599564b9d1fc55fc41eb123
      id: 697440871
      PathAndIcons:
      - ElementName: Default Work Unit
        ObjectType: 12
      - ElementName: FOLEYS
        ObjectType: 4
      - ElementName: Play_Fol_Chaise4_Chuchotis1
        ObjectType: 3
      Path: Default Work Unit\FOLEYS\Play_Fol_Chaise4_Chuchotis1
      maxAttenuation: 0
      maxDuration: -1
      minDuration: -1
    - name: Play_Fol_Chaises_Deplacent
      guid: 4f5d9fbf5764c9409e6bdec5530b5e96
      id: 1789045155
      PathAndIcons:
      - ElementName: Default Work Unit
        ObjectType: 12
      - ElementName: FOLEYS
        ObjectType: 4
      - ElementName: Play_Fol_Chaises_Deplacent
        ObjectType: 3
      Path: Default Work Unit\FOLEYS\Play_Fol_Chaises_Deplacent
      maxAttenuation: 0
      maxDuration: -1
      minDuration: -1
    - name: Play_Fol_Chaises_DeplacentLOOP
      guid: 685a977f08fbb741bfc51f5392d7289e
      id: 1151522189
      PathAndIcons:
      - ElementName: Default Work Unit
        ObjectType: 12
      - ElementName: FOLEYS
        ObjectType: 4
      - ElementName: Play_Fol_Chaises_DeplacentLOOP
        ObjectType: 3
      Path: Default Work Unit\FOLEYS\Play_Fol_Chaises_DeplacentLOOP
      maxAttenuation: 0
      maxDuration: -1
      minDuration: -1
    - name: Play_Fol_Changementgravite
      guid: c2118b95be82244fb8a530a836a366e6
      id: 161984286
      PathAndIcons:
      - ElementName: Default Work Unit
        ObjectType: 12
      - ElementName: FOLEYS
        ObjectType: 4
      - ElementName: Play_Fol_Changementgravite
        ObjectType: 3
      Path: Default Work Unit\FOLEYS\Play_Fol_Changementgravite
      maxAttenuation: 0
      maxDuration: -1
      minDuration: -1
    - name: Play_Fol_Lumiere_Claquent
      guid: 79b3ef33d75c7a488dd61deeb4df67f9
      id: 3809569913
      PathAndIcons:
      - ElementName: Default Work Unit
        ObjectType: 12
      - ElementName: FOLEYS
        ObjectType: 4
      - ElementName: Fol_Lumiere
        ObjectType: 4
      - ElementName: Play_Fol_Lumiere_Claquent
        ObjectType: 3
      Path: Default Work Unit\FOLEYS\Fol_Lumiere\Play_Fol_Lumiere_Claquent
      maxAttenuation: 0
      maxDuration: -1
      minDuration: -1
    - name: Play_Fol_Lumiere_Eteindre
      guid: 32e0d0c14f4158408fbfe0bca4aec5b5
      id: 1818177262
      PathAndIcons:
      - ElementName: Default Work Unit
        ObjectType: 12
      - ElementName: FOLEYS
        ObjectType: 4
      - ElementName: Fol_Lumiere
        ObjectType: 4
      - ElementName: Play_Fol_Lumiere_Eteindre
        ObjectType: 3
      Path: Default Work Unit\FOLEYS\Fol_Lumiere\Play_Fol_Lumiere_Eteindre
      maxAttenuation: 0
      maxDuration: -1
      minDuration: -1
    - name: Play_Fol_Lumiere_Gresillement
      guid: 484ed863ed54a24595fd45507e5ab5c5
      id: 3054449871
      PathAndIcons:
      - ElementName: Default Work Unit
        ObjectType: 12
      - ElementName: FOLEYS
        ObjectType: 4
      - ElementName: Fol_Lumiere
        ObjectType: 4
      - ElementName: Play_Fol_Lumiere_Gresillement
        ObjectType: 3
      Path: Default Work Unit\FOLEYS\Fol_Lumiere\Play_Fol_Lumiere_Gresillement
      maxAttenuation: 0
      maxDuration: -1
      minDuration: -1
    - name: Play_Fol_Lumiere_SASSalle2
      guid: ab7cbd72ec0a064c9348d65b9d14d526
      id: 1091085932
      PathAndIcons:
      - ElementName: Default Work Unit
        ObjectType: 12
      - ElementName: FOLEYS
        ObjectType: 4
      - ElementName: Fol_Lumiere
        ObjectType: 4
      - ElementName: Play_Fol_Lumiere_SASSalle2
        ObjectType: 3
      Path: Default Work Unit\FOLEYS\Fol_Lumiere\Play_Fol_Lumiere_SASSalle2
      maxAttenuation: 0
      maxDuration: -1
      minDuration: -1
    - name: Play_Fol_Phono_Entrepot_Philo
      guid: e35129b8422bc94f8c54a7a75ad74ec1
      id: 1221875783
      PathAndIcons:
      - ElementName: Default Work Unit
        ObjectType: 12
      - ElementName: FOLEYS
        ObjectType: 4
      - ElementName: Fol_Phonographe
        ObjectType: 4
      - ElementName: Play_Fol_Phono_Entrepot_Philo
        ObjectType: 3
      Path: Default Work Unit\FOLEYS\Fol_Phonographe\Play_Fol_Phono_Entrepot_Philo
      maxAttenuation: 0
      maxDuration: -1
      minDuration: -1
    - name: Play_Fol_Phono_StateNiveauxAngoisse
      guid: 12dda836a519754da4e2aa1948466076
      id: 1661041505
      PathAndIcons:
      - ElementName: Default Work Unit
        ObjectType: 12
      - ElementName: FOLEYS
        ObjectType: 4
      - ElementName: Fol_Phonographe
        ObjectType: 4
      - ElementName: Play_Fol_Phono_StateNiveauxAngoisse
        ObjectType: 3
      Path: Default Work Unit\FOLEYS\Fol_Phonographe\Play_Fol_Phono_StateNiveauxAngoisse
      maxAttenuation: 0
      maxDuration: -1
      minDuration: -1
    - name: Play_Fol_Porte_Apparition
      guid: f157f818af2e1144b32fc5adab7d1364
      id: 2958157634
      PathAndIcons:
      - ElementName: Default Work Unit
        ObjectType: 12
      - ElementName: FOLEYS
        ObjectType: 4
      - ElementName: Fol_Porte
        ObjectType: 4
      - ElementName: Play_Fol_Porte_Apparition
        ObjectType: 3
      Path: Default Work Unit\FOLEYS\Fol_Porte\Play_Fol_Porte_Apparition
      maxAttenuation: 0
      maxDuration: -1
      minDuration: -1
    - name: Play_Fol_Porte_Close
      guid: c8e6ca9f3d2fba4287fcc03f76e536cc
      id: 205611475
      PathAndIcons:
      - ElementName: Default Work Unit
        ObjectType: 12
      - ElementName: FOLEYS
        ObjectType: 4
      - ElementName: Fol_Porte
        ObjectType: 4
      - ElementName: Play_Fol_Porte_Close
        ObjectType: 3
      Path: Default Work Unit\FOLEYS\Fol_Porte\Play_Fol_Porte_Close
      maxAttenuation: 0
      maxDuration: -1
      minDuration: -1
    - name: Play_Fol_Porte_Coince
      guid: 7a7e5fa4d5045745b86c54d46f7889d5
      id: 3966394522
      PathAndIcons:
      - ElementName: Default Work Unit
        ObjectType: 12
      - ElementName: FOLEYS
        ObjectType: 4
      - ElementName: Fol_Porte
        ObjectType: 4
      - ElementName: Play_Fol_Porte_Coince
        ObjectType: 3
      Path: Default Work Unit\FOLEYS\Fol_Porte\Play_Fol_Porte_Coince
      maxAttenuation: 0
      maxDuration: -1
      minDuration: -1
    - name: Play_Fol_Porte_Cri
      guid: 6a7cb22e8594b3468c2c6965ff27493c
      id: 71654703
      PathAndIcons:
      - ElementName: Default Work Unit
        ObjectType: 12
      - ElementName: FOLEYS
        ObjectType: 4
      - ElementName: Fol_Porte
        ObjectType: 4
      - ElementName: Play_Fol_Porte_Cri
        ObjectType: 3
      Path: Default Work Unit\FOLEYS\Fol_Porte\Play_Fol_Porte_Cri
      maxAttenuation: 0
      maxDuration: -1
      minDuration: -1
    - name: Play_Fol_Porte_Knock
      guid: 12b2dead6cfeac42b57aa14d7812066e
      id: 2808225447
      PathAndIcons:
      - ElementName: Default Work Unit
        ObjectType: 12
      - ElementName: FOLEYS
        ObjectType: 4
      - ElementName: Fol_Porte
        ObjectType: 4
      - ElementName: Play_Fol_Porte_Knock
        ObjectType: 3
      Path: Default Work Unit\FOLEYS\Fol_Porte\Play_Fol_Porte_Knock
      maxAttenuation: 0
      maxDuration: -1
      minDuration: -1
    - name: Play_Fol_Porte_Open
      guid: 88145275bbedcf4480d25c9e06935fa3
      id: 18956901
      PathAndIcons:
      - ElementName: Default Work Unit
        ObjectType: 12
      - ElementName: FOLEYS
        ObjectType: 4
      - ElementName: Fol_Porte
        ObjectType: 4
      - ElementName: Play_Fol_Porte_Open
        ObjectType: 3
      Path: Default Work Unit\FOLEYS\Fol_Porte\Play_Fol_Porte_Open
      maxAttenuation: 0
      maxDuration: -1
      minDuration: -1
    - name: Play_Fol_Porte_Respirations
      guid: 83cb96f076ec29488b2186d199631c41
      id: 775440436
      PathAndIcons:
      - ElementName: Default Work Unit
        ObjectType: 12
      - ElementName: FOLEYS
        ObjectType: 4
      - ElementName: Fol_Porte
        ObjectType: 4
      - ElementName: Play_Fol_Porte_Respirations
        ObjectType: 3
      Path: Default Work Unit\FOLEYS\Fol_Porte\Play_Fol_Porte_Respirations
      maxAttenuation: 0
      maxDuration: -1
      minDuration: -1
    - name: Play_Fol_Tableaubouge
      guid: d68dc869e5a0d943ad8e540d68306a69
      id: 921806336
      PathAndIcons:
      - ElementName: Default Work Unit
        ObjectType: 12
      - ElementName: FOLEYS
        ObjectType: 4
      - ElementName: Play_Fol_Tableaubouge
        ObjectType: 3
      Path: Default Work Unit\FOLEYS\Play_Fol_Tableaubouge
      maxAttenuation: 0
      maxDuration: -1
      minDuration: -1
    - name: Play_Fol_Telephone_Buzz_ElementAutres
      guid: d5674e2b6432294395fdbaf7a03f167c
      id: 574329133
      PathAndIcons:
      - ElementName: Default Work Unit
        ObjectType: 12
      - ElementName: FOLEYS
        ObjectType: 4
      - ElementName: Fol-Telephone
        ObjectType: 4
      - ElementName: Play_Fol_Telephone_Buzz_ElementAutres
        ObjectType: 3
      Path: Default Work Unit\FOLEYS\Fol-Telephone\Play_Fol_Telephone_Buzz_ElementAutres
      maxAttenuation: 0
      maxDuration: -1
      minDuration: -1
    - name: Play_Fol_Telephone_Buzz_Simple
      guid: 69aa9a642576cb4997df1cddfde2a0e0
      id: 911890705
      PathAndIcons:
      - ElementName: Default Work Unit
        ObjectType: 12
      - ElementName: FOLEYS
        ObjectType: 4
      - ElementName: Fol-Telephone
        ObjectType: 4
      - ElementName: Play_Fol_Telephone_Buzz_Simple
        ObjectType: 3
      Path: Default Work Unit\FOLEYS\Fol-Telephone\Play_Fol_Telephone_Buzz_Simple
      maxAttenuation: 0
      maxDuration: -1
      minDuration: -1
    - name: Play_Fol_Telephone_Decroche
      guid: f239b14b7b87374f9b74183f5f5ecf2d
      id: 3858810250
      PathAndIcons:
      - ElementName: Default Work Unit
        ObjectType: 12
      - ElementName: FOLEYS
        ObjectType: 4
      - ElementName: Fol-Telephone
        ObjectType: 4
      - ElementName: Play_Fol_Telephone_Decroche
        ObjectType: 3
      Path: Default Work Unit\FOLEYS\Fol-Telephone\Play_Fol_Telephone_Decroche
      maxAttenuation: 0
      maxDuration: -1
      minDuration: -1
    - name: Play_Fol_Telephone_Messageautomatique
      guid: 2140a4c765318c45a5a3b11577494ab6
      id: 242183033
      PathAndIcons:
      - ElementName: Default Work Unit
        ObjectType: 12
      - ElementName: FOLEYS
        ObjectType: 4
      - ElementName: Fol-Telephone
        ObjectType: 4
      - ElementName: Play_Fol_Telephone_Messageautomatique
        ObjectType: 3
      Path: Default Work Unit\FOLEYS\Fol-Telephone\Play_Fol_Telephone_Messageautomatique
      maxAttenuation: 0
      maxDuration: -1
      minDuration: -1
    - name: Play_Fol_Telephone_Raccroche
      guid: 91f4d612e4351c469c08d87f6ad9077d
      id: 1033749283
      PathAndIcons:
      - ElementName: Default Work Unit
        ObjectType: 12
      - ElementName: FOLEYS
        ObjectType: 4
      - ElementName: Fol-Telephone
        ObjectType: 4
      - ElementName: Play_Fol_Telephone_Raccroche
        ObjectType: 3
      Path: Default Work Unit\FOLEYS\Fol-Telephone\Play_Fol_Telephone_Raccroche
      maxAttenuation: 0
      maxDuration: -1
      minDuration: -1
    - name: Play_Fol_Telephone_Sonnerie
      guid: c84385d28ec8214e92c4dbb06b91542f
      id: 199966330
      PathAndIcons:
      - ElementName: Default Work Unit
        ObjectType: 12
      - ElementName: FOLEYS
        ObjectType: 4
      - ElementName: Fol-Telephone
        ObjectType: 4
      - ElementName: Play_Fol_Telephone_Sonnerie
        ObjectType: 3
      Path: Default Work Unit\FOLEYS\Fol-Telephone\Play_Fol_Telephone_Sonnerie
      maxAttenuation: 0
      maxDuration: -1
      minDuration: -1
    - name: Play_Fol_TelephoneSalon2_Filtre
      guid: 7e6ec31e65e4034ea9f6febeca0f0363
      id: 424518206
      PathAndIcons:
      - ElementName: Default Work Unit
        ObjectType: 12
      - ElementName: FOLEYS
        ObjectType: 4
      - ElementName: Fol-Telephone
        ObjectType: 4
      - ElementName: Play_Fol_TelephoneSalon2_Filtre
        ObjectType: 3
      Path: Default Work Unit\FOLEYS\Fol-Telephone\Play_Fol_TelephoneSalon2_Filtre
      maxAttenuation: 0
      maxDuration: -1
      minDuration: -1
    - name: Play_FX_Amb_Credits
      guid: 598690c444122448af87b230d498ee78
      id: 123323362
      PathAndIcons:
      - ElementName: Default Work Unit
        ObjectType: 12
      - ElementName: FX- UI
        ObjectType: 4
      - ElementName: Play_FX_Amb_Credits
        ObjectType: 3
      Path: Default Work Unit\FX- UI\Play_FX_Amb_Credits
      maxAttenuation: 0
      maxDuration: -1
      minDuration: -1
    - name: Play_FX_BrickEntrepotFin
      guid: e022b08abfbe3f43b8453fc4e0d2f15f
      id: 4268696266
      PathAndIcons:
      - ElementName: Default Work Unit
        ObjectType: 12
      - ElementName: FX- UI
        ObjectType: 4
      - ElementName: Play_FX_BrickEntrepotFin
        ObjectType: 3
      Path: Default Work Unit\FX- UI\Play_FX_BrickEntrepotFin
      maxAttenuation: 0
      maxDuration: -1
      minDuration: -1
    - name: Play_FX_CutAunoirEntrepotFin
      guid: b5dc064283513446bc5944cacb8f6c03
      id: 1678369229
      PathAndIcons:
      - ElementName: Default Work Unit
        ObjectType: 12
      - ElementName: FX- UI
        ObjectType: 4
      - ElementName: Play_FX_CutAunoirEntrepotFin
        ObjectType: 3
      Path: Default Work Unit\FX- UI\Play_FX_CutAunoirEntrepotFin
      maxAttenuation: 0
      maxDuration: -1
      minDuration: -1
    - name: Play_FX_Ombre
      guid: 39633532d7a883409eb44068ff6bb3c5
      id: 971992092
      PathAndIcons:
      - ElementName: Default Work Unit
        ObjectType: 12
      - ElementName: FX- UI
        ObjectType: 4
      - ElementName: Play_FX_Ombre
        ObjectType: 3
      Path: Default Work Unit\FX- UI\Play_FX_Ombre
      maxAttenuation: 0
      maxDuration: -1
      minDuration: -1
    - name: Play_FX_PassageCaneva
      guid: e58283d3150d354f9b7f2b310216d5c9
      id: 3312299345
      PathAndIcons:
      - ElementName: Default Work Unit
        ObjectType: 12
      - ElementName: FX- UI
        ObjectType: 4
      - ElementName: FX_Tabelau_Passage
        ObjectType: 4
      - ElementName: Play_FX_PassageCaneva
        ObjectType: 3
      Path: Default Work Unit\FX- UI\FX_Tabelau_Passage\Play_FX_PassageCaneva
      maxAttenuation: 0
      maxDuration: -1
      minDuration: -1
    - name: Play_FX_PassageClaquementlumi_re
      guid: acba62ef1d942648afdecc070715f03e
      id: 909420793
      PathAndIcons:
      - ElementName: Default Work Unit
        ObjectType: 12
      - ElementName: FX- UI
        ObjectType: 4
      - ElementName: FX_Tabelau_Passage
        ObjectType: 4
      - ElementName: Play_FX_PassageClaquementlumi_re
        ObjectType: 3
      Path: Default Work Unit\FX- UI\FX_Tabelau_Passage\Play_FX_PassageClaquementlumi_re
      maxAttenuation: 0
      maxDuration: -1
      minDuration: -1
    - name: Play_FX_PassageGlitchAmb
      guid: 64aa8b3a3f1e06478cf26643fdc0ff42
      id: 4004184858
      PathAndIcons:
      - ElementName: Default Work Unit
        ObjectType: 12
      - ElementName: FX- UI
        ObjectType: 4
      - ElementName: FX_Tabelau_Passage
        ObjectType: 4
      - ElementName: Play_FX_PassageGlitchAmb
        ObjectType: 3
      Path: Default Work Unit\FX- UI\FX_Tabelau_Passage\Play_FX_PassageGlitchAmb
      maxAttenuation: 0
      maxDuration: -1
      minDuration: -1
    - name: Play_FX_PassageGlitchstep
      guid: 76a4fa330a79504e88ae6275de8b22b7
      id: 2565472060
      PathAndIcons:
      - ElementName: Default Work Unit
        ObjectType: 12
      - ElementName: FX- UI
        ObjectType: 4
      - ElementName: FX_Tabelau_Passage
        ObjectType: 4
      - ElementName: Play_FX_PassageGlitchstep
        ObjectType: 3
      Path: Default Work Unit\FX- UI\FX_Tabelau_Passage\Play_FX_PassageGlitchstep
      maxAttenuation: 0
      maxDuration: -1
      minDuration: -1
    - name: Play_FX_PassagePorte
      guid: 19de9913de9b9e4c8521a5201e5ee78d
      id: 2281366457
      PathAndIcons:
      - ElementName: Default Work Unit
        ObjectType: 12
      - ElementName: FX- UI
        ObjectType: 4
      - ElementName: FX_Tabelau_Passage
        ObjectType: 4
      - ElementName: Play_FX_PassagePorte
        ObjectType: 3
      Path: Default Work Unit\FX- UI\FX_Tabelau_Passage\Play_FX_PassagePorte
      maxAttenuation: 0
      maxDuration: -1
      minDuration: -1
    - name: Play_FX_Tremblement_Base
      guid: dc3d641acf05e140b93cdeb7ac77420b
      id: 3457963342
      PathAndIcons:
      - ElementName: Default Work Unit
        ObjectType: 12
      - ElementName: FX- UI
        ObjectType: 4
      - ElementName: Play_FX_Tremblement_Base
        ObjectType: 3
      Path: Default Work Unit\FX- UI\Play_FX_Tremblement_Base
      maxAttenuation: 0
      maxDuration: -1
      minDuration: -1
    - name: Play_FX_TremblementFIN
      guid: d41746279addcd4f8cdcd16ba60ef366
      id: 706175121
      PathAndIcons:
      - ElementName: Default Work Unit
        ObjectType: 12
      - ElementName: FX- UI
        ObjectType: 4
      - ElementName: Play_FX_TremblementFIN
        ObjectType: 3
      Path: Default Work Unit\FX- UI\Play_FX_TremblementFIN
      maxAttenuation: 0
      maxDuration: -1
      minDuration: -1
    - name: Play_FX_Trou_Noir
      guid: b43d66e7b4d2ad4e935f3c945d02720a
      id: 1829260220
      PathAndIcons:
      - ElementName: Default Work Unit
        ObjectType: 12
      - ElementName: FX- UI
        ObjectType: 4
      - ElementName: Play_FX_Trou_Noir
        ObjectType: 3
      Path: Default Work Unit\FX- UI\Play_FX_Trou_Noir
      maxAttenuation: 0
      maxDuration: -1
      minDuration: -1
    - name: Play_Perso_Footsetps_Bitume
      guid: a54ccaa986ea9348a4258d630f8cbb9f
      id: 3867774950
      PathAndIcons:
      - ElementName: Default Work Unit
        ObjectType: 12
      - ElementName: PERSONNAGE
        ObjectType: 4
      - ElementName: Perso_Footsteps
        ObjectType: 4
      - ElementName: Play_Perso_Footsetps_Bitume
        ObjectType: 3
      Path: Default Work Unit\PERSONNAGE\Perso_Footsteps\Play_Perso_Footsetps_Bitume
      maxAttenuation: 0
      maxDuration: -1
      minDuration: -1
    - name: Play_Perso_Footsetps_Liquid
      guid: 27f1ed7ffd5bb8468e5b0feada8611b0
      id: 3915998562
      PathAndIcons:
      - ElementName: Default Work Unit
        ObjectType: 12
      - ElementName: PERSONNAGE
        ObjectType: 4
      - ElementName: Perso_Footsteps
        ObjectType: 4
      - ElementName: Play_Perso_Footsetps_Liquid
        ObjectType: 3
      Path: Default Work Unit\PERSONNAGE\Perso_Footsteps\Play_Perso_Footsetps_Liquid
      maxAttenuation: 0
      maxDuration: -1
      minDuration: -1
    - name: Play_Perso_Footsetps_Parquet
      guid: a9fe91145414a343811b943dd660cca6
      id: 3999358298
      PathAndIcons:
      - ElementName: Default Work Unit
        ObjectType: 12
      - ElementName: PERSONNAGE
        ObjectType: 4
      - ElementName: Perso_Footsteps
        ObjectType: 4
      - ElementName: Play_Perso_Footsetps_Parquet
        ObjectType: 3
      Path: Default Work Unit\PERSONNAGE\Perso_Footsteps\Play_Perso_Footsetps_Parquet
      maxAttenuation: 0
      maxDuration: -1
      minDuration: -1
    - name: Play_Perso_Footsetps_Reverse
      guid: 5c16c06135a5ff43a3cf860dbd615a5b
      id: 943023448
      PathAndIcons:
      - ElementName: Default Work Unit
        ObjectType: 12
      - ElementName: PERSONNAGE
        ObjectType: 4
      - ElementName: Perso_Footsteps
        ObjectType: 4
      - ElementName: Play_Perso_Footsetps_Reverse
        ObjectType: 3
      Path: Default Work Unit\PERSONNAGE\Perso_Footsteps\Play_Perso_Footsetps_Reverse
      maxAttenuation: 0
      maxDuration: -1
      minDuration: -1
    - name: Play_Perso_Footsetps_Tapis
      guid: cec32d09af824d439fbd6d305eb357ec
      id: 1954234369
      PathAndIcons:
      - ElementName: Default Work Unit
        ObjectType: 12
      - ElementName: PERSONNAGE
        ObjectType: 4
      - ElementName: Perso_Footsteps
        ObjectType: 4
      - ElementName: Play_Perso_Footsetps_Tapis
        ObjectType: 3
      Path: Default Work Unit\PERSONNAGE\Perso_Footsteps\Play_Perso_Footsetps_Tapis
      maxAttenuation: 0
      maxDuration: -1
      minDuration: -1
    - name: Play_Perso_Respiration_Pleurs
      guid: 1adbdebff7a1bd44b0d4e785e79e9516
      id: 871797694
      PathAndIcons:
      - ElementName: Default Work Unit
        ObjectType: 12
      - ElementName: PERSONNAGE
        ObjectType: 4
      - ElementName: Perso_Respirations
        ObjectType: 4
      - ElementName: Play_Perso_Respiration_Pleurs
        ObjectType: 3
      Path: Default Work Unit\PERSONNAGE\Perso_Respirations\Play_Perso_Respiration_Pleurs
      maxAttenuation: 0
      maxDuration: -1
      minDuration: -1
    - name: Play_Perso_Respiration_Reveil
      guid: 1a57f402b20a1f4b8a78f39baa122d9c
      id: 1256498166
      PathAndIcons:
      - ElementName: Default Work Unit
        ObjectType: 12
      - ElementName: PERSONNAGE
        ObjectType: 4
      - ElementName: Perso_Respirations
        ObjectType: 4
      - ElementName: Play_Perso_Respiration_Reveil
        ObjectType: 3
      Path: Default Work Unit\PERSONNAGE\Perso_Respirations\Play_Perso_Respiration_Reveil
      maxAttenuation: 0
      maxDuration: -1
      minDuration: -1
    - name: Play_Perso_Respirations_NA
      guid: d5c0ebb800e3784fb99600ad2a1cc641
      id: 654872799
      PathAndIcons:
      - ElementName: Default Work Unit
        ObjectType: 12
      - ElementName: PERSONNAGE
        ObjectType: 4
      - ElementName: Perso_Respirations
        ObjectType: 4
      - ElementName: Play_Perso_Respirations_NA
        ObjectType: 3
      Path: Default Work Unit\PERSONNAGE\Perso_Respirations\Play_Perso_Respirations_NA
      maxAttenuation: 0
      maxDuration: -1
      minDuration: -1
    - name: Play_Tableau_ShaderSalle7
      guid: adfb3380a141b942b51a8ea496029e69
      id: 1651280236
      PathAndIcons:
      - ElementName: Default Work Unit
        ObjectType: 12
      - ElementName: FX- UI
        ObjectType: 4
      - ElementName: Play_Tableau_ShaderSalle7
        ObjectType: 3
      Path: Default Work Unit\FX- UI\Play_Tableau_ShaderSalle7
      maxAttenuation: 0
      maxDuration: -1
      minDuration: -1
    - name: Play_TableauFocal
      guid: f40a80dc936cbf408f65f76e689f689d
      id: 3235849247
      PathAndIcons:
      - ElementName: Default Work Unit
        ObjectType: 12
      - ElementName: FX- UI
        ObjectType: 4
      - ElementName: Play_TableauFocal
        ObjectType: 3
      Path: Default Work Unit\FX- UI\Play_TableauFocal
      maxAttenuation: 0
      maxDuration: -1
      minDuration: -1
    - name: Play_TableauFocal_Etat
      guid: 44376f55d9af7e49b774c5a65d87183a
      id: 1515972966
      PathAndIcons:
      - ElementName: Default Work Unit
        ObjectType: 12
      - ElementName: FX- UI
        ObjectType: 4
      - ElementName: Play_TableauFocal_Etat
        ObjectType: 3
      Path: Default Work Unit\FX- UI\Play_TableauFocal_Etat
      maxAttenuation: 0
      maxDuration: -1
      minDuration: -1
    - name: Play_ThemeNA3LOOP
      guid: ee659e2b5303f142abcc565469344ad8
      id: 2300697303
      PathAndIcons:
      - ElementName: Default Work Unit
        ObjectType: 12
      - ElementName: FX- UI
        ObjectType: 4
      - ElementName: Play_ThemeNA3LOOP
        ObjectType: 3
      Path: Default Work Unit\FX- UI\Play_ThemeNA3LOOP
      maxAttenuation: 0
      maxDuration: -1
      minDuration: -1
    - name: Play_ThemeNA6LOOP
      guid: 3f0edecf3ec7514fb53d28c7ab4deaaf
      id: 2425766314
      PathAndIcons:
      - ElementName: Default Work Unit
        ObjectType: 12
      - ElementName: FX- UI
        ObjectType: 4
      - ElementName: Play_ThemeNA6LOOP
        ObjectType: 3
      Path: Default Work Unit\FX- UI\Play_ThemeNA6LOOP
      maxAttenuation: 0
      maxDuration: -1
      minDuration: -1
    - name: Play_ThemeNA7LOOP
      guid: 1c6d05086a78124bbc0a372375a85477
      id: 724805371
      PathAndIcons:
      - ElementName: Default Work Unit
        ObjectType: 12
      - ElementName: FX- UI
        ObjectType: 4
      - ElementName: Play_ThemeNA7LOOP
        ObjectType: 3
      Path: Default Work Unit\FX- UI\Play_ThemeNA7LOOP
      maxAttenuation: 0
      maxDuration: -1
      minDuration: -1
    - name: Play_ThemeNA8LOOP
      guid: ad8726dc16dfe94a8aeacde759a921d7
      id: 3500091624
      PathAndIcons:
      - ElementName: Default Work Unit
        ObjectType: 12
      - ElementName: FX- UI
        ObjectType: 4
      - ElementName: Play_ThemeNA8LOOP
        ObjectType: 3
      Path: Default Work Unit\FX- UI\Play_ThemeNA8LOOP
      maxAttenuation: 0
      maxDuration: -1
      minDuration: -1
    - name: Play_UI_Clic
      guid: ebdcdc204c0ea64cab1397ca6afc0e75
      id: 3897570994
      PathAndIcons:
      - ElementName: Default Work Unit
        ObjectType: 12
      - ElementName: FX- UI
        ObjectType: 4
      - ElementName: Play_UI_Clic
        ObjectType: 3
      Path: Default Work Unit\FX- UI\Play_UI_Clic
      maxAttenuation: 0
      maxDuration: -1
      minDuration: -1
    - name: Play_UI_Slider
      guid: c8605b9a52058b4c9de867efceb255d3
      id: 2007211132
      PathAndIcons:
      - ElementName: Default Work Unit
        ObjectType: 12
      - ElementName: FX- UI
        ObjectType: 4
      - ElementName: Play_UI_Slider
        ObjectType: 3
      Path: Default Work Unit\FX- UI\Play_UI_Slider
      maxAttenuation: 0
      maxDuration: -1
      minDuration: -1
    - name: Play_VoixAP_Entrepot_1_UM
      guid: ce2464fda621c04f8fda5bb3f8b3a811
      id: 1520358452
      PathAndIcons:
      - ElementName: Default Work Unit
        ObjectType: 12
      - ElementName: VOIX
        ObjectType: 4
      - ElementName: Entrepot
        ObjectType: 4
      - ElementName: Play_VoixAP_Entrepot_1_UM
        ObjectType: 3
      Path: Default Work Unit\VOIX\Entrepot\Play_VoixAP_Entrepot_1_UM
      maxAttenuation: 0
      maxDuration: -1
      minDuration: -1
    - name: Play_VoixAp_Entrepot_2_V
      guid: 7b6b8c6f7cc22d4fa9e3b5757b08f549
      id: 3787843239
      PathAndIcons:
      - ElementName: Default Work Unit
        ObjectType: 12
      - ElementName: VOIX
        ObjectType: 4
      - ElementName: Entrepot
        ObjectType: 4
      - ElementName: Play_VoixAp_Entrepot_2_V
        ObjectType: 3
      Path: Default Work Unit\VOIX\Entrepot\Play_VoixAp_Entrepot_2_V
      maxAttenuation: 0
      maxDuration: -1
      minDuration: -1
    - name: Play_VoixAP_Entrepot_3_UC_Emitter
      guid: ab2529fd02687a43a92594698455b8ea
      id: 146049963
      PathAndIcons:
      - ElementName: Default Work Unit
        ObjectType: 12
      - ElementName: VOIX
        ObjectType: 4
      - ElementName: Entrepot
        ObjectType: 4
      - ElementName: Play_VoixAP_Entrepot_3_UC_Emitter
        ObjectType: 3
      Path: Default Work Unit\VOIX\Entrepot\Play_VoixAP_Entrepot_3_UC_Emitter
      maxAttenuation: 0
      maxDuration: -1
      minDuration: -1
    - name: Play_VoixAp_Entrepot_4_S_C
      guid: f9fe53ba2c7ff24e850ea498e78fd476
      id: 1876002782
      PathAndIcons:
      - ElementName: Default Work Unit
        ObjectType: 12
      - ElementName: VOIX
        ObjectType: 4
      - ElementName: Entrepot
        ObjectType: 4
      - ElementName: Play_VoixAp_Entrepot_4_S_C
        ObjectType: 3
      Path: Default Work Unit\VOIX\Entrepot\Play_VoixAp_Entrepot_4_S_C
      maxAttenuation: 0
      maxDuration: -1
      minDuration: -1
    - name: Play_VoixAp_EntrepotFinal_1_V
      guid: f4337fb8a644c14cb2302fac722da77e
      id: 1890770154
      PathAndIcons:
      - ElementName: Default Work Unit
        ObjectType: 12
      - ElementName: VOIX
        ObjectType: 4
      - ElementName: Entrepot
        ObjectType: 4
      - ElementName: Play_VoixAp_EntrepotFinal_1_V
        ObjectType: 3
      Path: Default Work Unit\VOIX\Entrepot\Play_VoixAp_EntrepotFinal_1_V
      maxAttenuation: 0
      maxDuration: -1
      minDuration: -1
    - name: Play_VoixAp_EntrepotFinal_2_S_C_G
      guid: 5506c63355180543b2aee6aef69766c4
      id: 3518057480
      PathAndIcons:
      - ElementName: Default Work Unit
        ObjectType: 12
      - ElementName: VOIX
        ObjectType: 4
      - ElementName: Entrepot
        ObjectType: 4
      - ElementName: Play_VoixAp_EntrepotFinal_2_S_C_G
        ObjectType: 3
      Path: Default Work Unit\VOIX\Entrepot\Play_VoixAp_EntrepotFinal_2_S_C_G
      maxAttenuation: 0
      maxDuration: -1
      minDuration: -1
    - name: Play_VoixAP_Salon1_1_ChuchoticS_C_Clara
      guid: 2deaffe3eaf415428545952343f89c22
      id: 1664424546
      PathAndIcons:
      - ElementName: Default Work Unit
        ObjectType: 12
      - ElementName: VOIX
        ObjectType: 4
      - ElementName: Salon1
        ObjectType: 4
      - ElementName: Play_VoixAP_Salon1_1_ChuchoticS_C_Clara
        ObjectType: 3
      Path: Default Work Unit\VOIX\Salon1\Play_VoixAP_Salon1_1_ChuchoticS_C_Clara
      maxAttenuation: 0
      maxDuration: -1
      minDuration: -1
    - name: Play_VoixAP_Salon1_2_G_Emitter
      guid: 3d6c5d1e211d9d46ba5ade49ed9cc8ff
      id: 682149064
      PathAndIcons:
      - ElementName: Default Work Unit
        ObjectType: 12
      - ElementName: VOIX
        ObjectType: 4
      - ElementName: Salon1
        ObjectType: 4
      - ElementName: Play_VoixAP_Salon1_2_G_Emitter
        ObjectType: 3
      Path: Default Work Unit\VOIX\Salon1\Play_VoixAP_Salon1_2_G_Emitter
      maxAttenuation: 0
      maxDuration: -1
      minDuration: -1
    - name: Play_VoixAP_Salon1_3a_G_Emitter
      guid: 45604fa61392fa44a45b94b505ce47fa
      id: 3362187992
      PathAndIcons:
      - ElementName: Default Work Unit
        ObjectType: 12
      - ElementName: VOIX
        ObjectType: 4
      - ElementName: Salon1
        ObjectType: 4
      - ElementName: Play_VoixAP_Salon1_3a_G_Emitter
        ObjectType: 3
      Path: Default Work Unit\VOIX\Salon1\Play_VoixAP_Salon1_3a_G_Emitter
      maxAttenuation: 0
      maxDuration: -1
      minDuration: -1
    - name: Play_VoixAP_Salon1_3b_G_UC_Emitter
      guid: 0341c49671e984469946804a8cdc9542
      id: 3928553732
      PathAndIcons:
      - ElementName: Default Work Unit
        ObjectType: 12
      - ElementName: VOIX
        ObjectType: 4
      - ElementName: Salon1
        ObjectType: 4
      - ElementName: Play_VoixAP_Salon1_3b_G_UC_Emitter
        ObjectType: 3
      Path: Default Work Unit\VOIX\Salon1\Play_VoixAP_Salon1_3b_G_UC_Emitter
      maxAttenuation: 0
      maxDuration: -1
      minDuration: -1
    - name: Play_VoixAP_Salon1_4_UC_Emitter
      guid: 5f17c6160c250348a8223a9e4e37b837
      id: 4110783489
      PathAndIcons:
      - ElementName: Default Work Unit
        ObjectType: 12
      - ElementName: VOIX
        ObjectType: 4
      - ElementName: Salon1
        ObjectType: 4
      - ElementName: Play_VoixAP_Salon1_4_UC_Emitter
        ObjectType: 3
      Path: Default Work Unit\VOIX\Salon1\Play_VoixAP_Salon1_4_UC_Emitter
      maxAttenuation: 0
      maxDuration: -1
      minDuration: -1
    - name: Play_VoixAp_Salon1_5_S_CTableau
      guid: 76e2aeb719e7cd4c95551b4943c726f5
      id: 1900397956
      PathAndIcons:
      - ElementName: Default Work Unit
        ObjectType: 12
      - ElementName: VOIX
        ObjectType: 4
      - ElementName: Salon1
        ObjectType: 4
      - ElementName: Play_VoixAp_Salon1_5_S_CTableau
        ObjectType: 3
      Path: Default Work Unit\VOIX\Salon1\Play_VoixAp_Salon1_5_S_CTableau
      maxAttenuation: 0
      maxDuration: -1
      minDuration: -1
    - name: Play_VoixAp_Salon1_S_C_Decroche
      guid: 8a47bf142278f24e959f697141716015
      id: 3292974824
      PathAndIcons:
      - ElementName: Default Work Unit
        ObjectType: 12
      - ElementName: VOIX
        ObjectType: 4
      - ElementName: Salon1
        ObjectType: 4
      - ElementName: Play_VoixAp_Salon1_S_C_Decroche
        ObjectType: 3
      Path: Default Work Unit\VOIX\Salon1\Play_VoixAp_Salon1_S_C_Decroche
      maxAttenuation: 0
      maxDuration: -1
      minDuration: -1
    - name: Play_VoixAp_Salon1SAS_6_S_CCoeur
      guid: 88b994cc4b969b4dbbe0fff959fc3b68
      id: 2611189880
      PathAndIcons:
      - ElementName: Default Work Unit
        ObjectType: 12
      - ElementName: VOIX
        ObjectType: 4
      - ElementName: Salon1
        ObjectType: 4
      - ElementName: Play_VoixAp_Salon1SAS_6_S_CCoeur
        ObjectType: 3
      Path: Default Work Unit\VOIX\Salon1\Play_VoixAp_Salon1SAS_6_S_CCoeur
      maxAttenuation: 0
      maxDuration: -1
      minDuration: -1
    - name: Play_VoixAP_Salon2_1_UC_Emitter
      guid: 647aa3e0b1740a48bc645cdc2d8c43f1
      id: 1787207987
      PathAndIcons:
      - ElementName: Default Work Unit
        ObjectType: 12
      - ElementName: VOIX
        ObjectType: 4
      - ElementName: Salon2
        ObjectType: 4
      - ElementName: Play_VoixAP_Salon2_1_UC_Emitter
        ObjectType: 3
      Path: Default Work Unit\VOIX\Salon2\Play_VoixAP_Salon2_1_UC_Emitter
      maxAttenuation: 0
      maxDuration: -1
      minDuration: -1
    - name: Play_VoixAP_Salon2_2_ChuchotisS_CClara
      guid: b504375ed9aa5e42a596e7f52fa58c2b
      id: 122389935
      PathAndIcons:
      - ElementName: Default Work Unit
        ObjectType: 12
      - ElementName: VOIX
        ObjectType: 4
      - ElementName: Salon2
        ObjectType: 4
      - ElementName: Play_VoixAP_Salon2_2_ChuchotisS_CClara
        ObjectType: 3
      Path: Default Work Unit\VOIX\Salon2\Play_VoixAP_Salon2_2_ChuchotisS_CClara
      maxAttenuation: 0
      maxDuration: -1
      minDuration: -1
    - name: Play_VoixAP_Salon2_2_ChuchotisS_CSalome
      guid: 2585ff85e4b44a438d76df686b9a9007
      id: 170613259
      PathAndIcons:
      - ElementName: Default Work Unit
        ObjectType: 12
      - ElementName: VOIX
        ObjectType: 4
      - ElementName: Salon2
        ObjectType: 4
      - ElementName: Play_VoixAP_Salon2_2_ChuchotisS_CSalome
        ObjectType: 3
      Path: Default Work Unit\VOIX\Salon2\Play_VoixAP_Salon2_2_ChuchotisS_CSalome
      maxAttenuation: 0
      maxDuration: -1
      minDuration: -1
    - name: Play_VoixAP_Salon3_1_V_G_Emitter
      guid: 4f5fe726b2d4f3469dfecd162a0b7479
      id: 3290250382
      PathAndIcons:
      - ElementName: Default Work Unit
        ObjectType: 12
      - ElementName: VOIX
        ObjectType: 4
      - ElementName: Salon3
        ObjectType: 4
      - ElementName: Play_VoixAP_Salon3_1_V_G_Emitter
        ObjectType: 3
      Path: Default Work Unit\VOIX\Salon3\Play_VoixAP_Salon3_1_V_G_Emitter
      maxAttenuation: 0
      maxDuration: -1
      minDuration: -1
    - name: Play_VoixAP_Salon3_2_ChuchotisS_CClara
      guid: 5d6927d804646c4b810af9539279185b
      id: 2126348862
      PathAndIcons:
      - ElementName: Default Work Unit
        ObjectType: 12
      - ElementName: VOIX
        ObjectType: 4
      - ElementName: Salon3
        ObjectType: 4
      - ElementName: Play_VoixAP_Salon3_2_ChuchotisS_CClara
        ObjectType: 3
      Path: Default Work Unit\VOIX\Salon3\Play_VoixAP_Salon3_2_ChuchotisS_CClara
      maxAttenuation: 0
      maxDuration: -1
      minDuration: -1
    - name: Play_VoixAP_Salon3_2_V_G_Emitter
      guid: 6a46de952b5c904899ea5165a79f800a
      id: 614690849
      PathAndIcons:
      - ElementName: Default Work Unit
        ObjectType: 12
      - ElementName: VOIX
        ObjectType: 4
      - ElementName: Salon3
        ObjectType: 4
      - ElementName: Play_VoixAP_Salon3_2_V_G_Emitter
        ObjectType: 3
      Path: Default Work Unit\VOIX\Salon3\Play_VoixAP_Salon3_2_V_G_Emitter
      maxAttenuation: 0
      maxDuration: -1
      minDuration: -1
    - name: Play_VoixAP_Salon3_3_V_G_Emitter
      guid: abcbb9c68c326e4a8eccf35030720638
      id: 1729061416
      PathAndIcons:
      - ElementName: Default Work Unit
        ObjectType: 12
      - ElementName: VOIX
        ObjectType: 4
      - ElementName: Salon3
        ObjectType: 4
      - ElementName: Play_VoixAP_Salon3_3_V_G_Emitter
        ObjectType: 3
      Path: Default Work Unit\VOIX\Salon3\Play_VoixAP_Salon3_3_V_G_Emitter
      maxAttenuation: 0
      maxDuration: -1
      minDuration: -1
    - name: Play_VoixAp_Salon3_Salle1_S_CRegarde
      guid: f7149cbdf86e174b8a94bdf8ff15d067
      id: 3384165305
      PathAndIcons:
      - ElementName: Default Work Unit
        ObjectType: 12
      - ElementName: VOIX
        ObjectType: 4
      - ElementName: Salon3
        ObjectType: 4
      - ElementName: Play_VoixAp_Salon3_Salle1_S_CRegarde
        ObjectType: 3
      Path: Default Work Unit\VOIX\Salon3\Play_VoixAp_Salon3_Salle1_S_CRegarde
      maxAttenuation: 0
      maxDuration: -1
      minDuration: -1
    - name: Play_VoixAP_Salon3_Salle3_ChuchotisS_CClara
      guid: 03df4b3592002c4494eeabbc5391c44f
      id: 176459102
      PathAndIcons:
      - ElementName: Default Work Unit
        ObjectType: 12
      - ElementName: VOIX
        ObjectType: 4
      - ElementName: Salon3
        ObjectType: 4
      - ElementName: Play_VoixAP_Salon3_Salle3_ChuchotisS_CClara
        ObjectType: 3
      Path: Default Work Unit\VOIX\Salon3\Play_VoixAP_Salon3_Salle3_ChuchotisS_CClara
      maxAttenuation: 0
      maxDuration: -1
      minDuration: -1
    - name: Play_VoixAp_Salon3_Salle3_S_CPourpre
      guid: d698f85310e1d942b723782b863afc3f
      id: 3784909964
      PathAndIcons:
      - ElementName: Default Work Unit
        ObjectType: 12
      - ElementName: VOIX
        ObjectType: 4
      - ElementName: Salon3
        ObjectType: 4
      - ElementName: Play_VoixAp_Salon3_Salle3_S_CPourpre
        ObjectType: 3
      Path: Default Work Unit\VOIX\Salon3\Play_VoixAp_Salon3_Salle3_S_CPourpre
      maxAttenuation: 0
      maxDuration: -1
      minDuration: -1
    - name: Play_VoixAP_Salon4_1_ChuchotisS_CClaraRandom
      guid: 3f28abc803cb4f42896bd295198df24c
      id: 1743877271
      PathAndIcons:
      - ElementName: Default Work Unit
        ObjectType: 12
      - ElementName: VOIX
        ObjectType: 4
      - ElementName: Salon4
        ObjectType: 4
      - ElementName: Play_VoixAP_Salon4_1_ChuchotisS_CClaraRandom
        ObjectType: 3
      Path: Default Work Unit\VOIX\Salon4\Play_VoixAP_Salon4_1_ChuchotisS_CClaraRandom
      maxAttenuation: 0
      maxDuration: -1
      minDuration: -1
    - name: Play_VoixAP_Salon4_2_G_Emitter
      guid: cfa24da07cb4144f9597a47b6e82110a
      id: 86128333
      PathAndIcons:
      - ElementName: Default Work Unit
        ObjectType: 12
      - ElementName: VOIX
        ObjectType: 4
      - ElementName: Salon4
        ObjectType: 4
      - ElementName: Play_VoixAP_Salon4_2_G_Emitter
        ObjectType: 3
      Path: Default Work Unit\VOIX\Salon4\Play_VoixAP_Salon4_2_G_Emitter
      maxAttenuation: 0
      maxDuration: -1
      minDuration: -1
    - name: Play_VoixAP_Salon4_3_UC_Emitter
      guid: 7fbebf64c21faf4d87724954ed30594b
      id: 2808160395
      PathAndIcons:
      - ElementName: Default Work Unit
        ObjectType: 12
      - ElementName: VOIX
        ObjectType: 4
      - ElementName: Salon4
        ObjectType: 4
      - ElementName: Play_VoixAP_Salon4_3_UC_Emitter
        ObjectType: 3
      Path: Default Work Unit\VOIX\Salon4\Play_VoixAP_Salon4_3_UC_Emitter
      maxAttenuation: 0
      maxDuration: -1
      minDuration: -1
    - name: Play_VoixAP_Salon4_4_UC_Emitter
      guid: 38ff5d911eff7b48b39637119a8d2d5f
      id: 3136433878
      PathAndIcons:
      - ElementName: Default Work Unit
        ObjectType: 12
      - ElementName: VOIX
        ObjectType: 4
      - ElementName: Salon4
        ObjectType: 4
      - ElementName: Play_VoixAP_Salon4_4_UC_Emitter
        ObjectType: 3
      Path: Default Work Unit\VOIX\Salon4\Play_VoixAP_Salon4_4_UC_Emitter
      maxAttenuation: 0
      maxDuration: -1
      minDuration: -1
    - name: Play_VoixAP_Salon4_5_ChuchotisS_CClara
      guid: dc958f013434064dadd00738306585cc
      id: 512004586
      PathAndIcons:
      - ElementName: Default Work Unit
        ObjectType: 12
      - ElementName: VOIX
        ObjectType: 4
      - ElementName: Salon4
        ObjectType: 4
      - ElementName: Play_VoixAP_Salon4_5_ChuchotisS_CClara
        ObjectType: 3
      Path: Default Work Unit\VOIX\Salon4\Play_VoixAP_Salon4_5_ChuchotisS_CClara
      maxAttenuation: 0
      maxDuration: -1
      minDuration: -1
    - name: Play_VoixAp_Salon4_S_C_Mauvaiseporte
      guid: 27974207ac8a0644ae18d718f28d1470
      id: 267618255
      PathAndIcons:
      - ElementName: Default Work Unit
        ObjectType: 12
      - ElementName: VOIX
        ObjectType: 4
      - ElementName: Salon4
        ObjectType: 4
      - ElementName: Play_VoixAp_Salon4_S_C_Mauvaiseporte
        ObjectType: 3
      Path: Default Work Unit\VOIX\Salon4\Play_VoixAp_Salon4_S_C_Mauvaiseporte
      maxAttenuation: 0
      maxDuration: -1
      minDuration: -1
    - name: Play_VoixAP_Salon5_1_G_UC_Emitter
      guid: d207b81b1b81584fa5c1ec26ebb1923c
      id: 610127048
      PathAndIcons:
      - ElementName: Default Work Unit
        ObjectType: 12
      - ElementName: VOIX
        ObjectType: 4
      - ElementName: Salon5
        ObjectType: 4
      - ElementName: Play_VoixAP_Salon5_1_G_UC_Emitter
        ObjectType: 3
      Path: Default Work Unit\VOIX\Salon5\Play_VoixAP_Salon5_1_G_UC_Emitter
      maxAttenuation: 0
      maxDuration: -1
      minDuration: -1
    - name: Play_VoixAp_Salon6_ChuhcotisSLespas
      guid: 3f24651d61cc2245bd02d6f32a07ee8c
      id: 2307160043
      PathAndIcons:
      - ElementName: Default Work Unit
        ObjectType: 12
      - ElementName: VOIX
        ObjectType: 4
      - ElementName: Salon6
        ObjectType: 4
      - ElementName: Play_VoixAp_Salon6_ChuhcotisSLespas
        ObjectType: 3
      Path: Default Work Unit\VOIX\Salon6\Play_VoixAp_Salon6_ChuhcotisSLespas
      maxAttenuation: 0
      maxDuration: -1
      minDuration: -1
    - name: Play_VoixAP_Salon6_G_UC
      guid: 44589e0c55180e41b13285e949bcf677
      id: 3082625698
      PathAndIcons:
      - ElementName: Default Work Unit
        ObjectType: 12
      - ElementName: VOIX
        ObjectType: 4
      - ElementName: Salon6
        ObjectType: 4
      - ElementName: Play_VoixAP_Salon6_G_UC
        ObjectType: 3
      Path: Default Work Unit\VOIX\Salon6\Play_VoixAP_Salon6_G_UC
      maxAttenuation: 0
      maxDuration: -1
      minDuration: -1
    - name: Play_VoixAp_Salon6_SChuchotisCoeur
      guid: d885d04d20b43d4c969a465388cd9d6b
      id: 199773179
      PathAndIcons:
      - ElementName: Default Work Unit
        ObjectType: 12
      - ElementName: VOIX
        ObjectType: 4
      - ElementName: Salon6
        ObjectType: 4
      - ElementName: Play_VoixAp_Salon6_SChuchotisCoeur
        ObjectType: 3
      Path: Default Work Unit\VOIX\Salon6\Play_VoixAp_Salon6_SChuchotisCoeur
      maxAttenuation: 0
      maxDuration: -1
      minDuration: -1
    - name: Play_VoixAp_Salon7_2GUC
      guid: 8c9d64d59c9d4c41867dacedde313f21
      id: 1181972390
      PathAndIcons:
      - ElementName: Default Work Unit
        ObjectType: 12
      - ElementName: VOIX
        ObjectType: 4
      - ElementName: Salon7
        ObjectType: 4
      - ElementName: Play_VoixAp_Salon7_2GUC
        ObjectType: 3
      Path: Default Work Unit\VOIX\Salon7\Play_VoixAp_Salon7_2GUC
      maxAttenuation: 0
      maxDuration: -1
      minDuration: -1
    - name: Play_VoixAp_Salon7_ChuhcotisS_C
      guid: 35e7bd9c2b3b044aab762988e6374034
      id: 1313764054
      PathAndIcons:
      - ElementName: Default Work Unit
        ObjectType: 12
      - ElementName: VOIX
        ObjectType: 4
      - ElementName: Salon7
        ObjectType: 4
      - ElementName: Play_VoixAp_Salon7_ChuhcotisS_C
        ObjectType: 3
      Path: Default Work Unit\VOIX\Salon7\Play_VoixAp_Salon7_ChuhcotisS_C
      maxAttenuation: 0
      maxDuration: -1
      minDuration: -1
    - name: Salon1
      guid: 582bf1ca63bff44a93b36b8ef01a8999
      id: 2386723109
      PathAndIcons:
      - ElementName: Default Work Unit
        ObjectType: 12
      - ElementName: VOIX
        ObjectType: 4
      - ElementName: Salon1
        ObjectType: 4
      - ElementName: Salon1
        ObjectType: 3
      Path: Default Work Unit\VOIX\Salon1\Salon1
      maxAttenuation: 0
      maxDuration: -1
      minDuration: -1
    - name: Salon2
      guid: 47007e8ea0e60441acf4a0dad80fff0f
      id: 2386723110
      PathAndIcons:
      - ElementName: Default Work Unit
        ObjectType: 12
      - ElementName: VOIX
        ObjectType: 4
      - ElementName: Salon2
        ObjectType: 4
      - ElementName: Salon2
        ObjectType: 3
      Path: Default Work Unit\VOIX\Salon2\Salon2
      maxAttenuation: 0
      maxDuration: -1
      minDuration: -1
    - name: Salon3
      guid: cc8a4d9facdba34a8518f2b825f80255
      id: 2386723111
      PathAndIcons:
      - ElementName: Default Work Unit
        ObjectType: 12
      - ElementName: VOIX
        ObjectType: 4
      - ElementName: Salon3
        ObjectType: 4
      - ElementName: Salon3
        ObjectType: 3
      Path: Default Work Unit\VOIX\Salon3\Salon3
      maxAttenuation: 0
      maxDuration: -1
      minDuration: -1
    - name: Salon4
      guid: aed9330efbc5f14e853ba3dac7f1cf17
      id: 2386723104
      PathAndIcons:
      - ElementName: Default Work Unit
        ObjectType: 12
      - ElementName: VOIX
        ObjectType: 4
      - ElementName: Salon4
        ObjectType: 4
      - ElementName: Salon4
        ObjectType: 3
      Path: Default Work Unit\VOIX\Salon4\Salon4
      maxAttenuation: 0
      maxDuration: -1
      minDuration: -1
    - name: Salon5
      guid: 2271bf8646426344a27aa01004e6e8d7
      id: 2386723105
      PathAndIcons:
      - ElementName: Default Work Unit
        ObjectType: 12
      - ElementName: VOIX
        ObjectType: 4
      - ElementName: Salon5
        ObjectType: 4
      - ElementName: Salon5
        ObjectType: 3
      Path: Default Work Unit\VOIX\Salon5\Salon5
      maxAttenuation: 0
      maxDuration: -1
      minDuration: -1
    - name: Salon6
      guid: cbe0ab8d0e59804984828bb93027ad36
      id: 2386723106
      PathAndIcons:
      - ElementName: Default Work Unit
        ObjectType: 12
      - ElementName: VOIX
        ObjectType: 4
      - ElementName: Salon6
        ObjectType: 4
      - ElementName: Salon6
        ObjectType: 3
      Path: Default Work Unit\VOIX\Salon6\Salon6
      maxAttenuation: 0
      maxDuration: -1
      minDuration: -1
    - name: Salon7
      guid: 553f89f1a6755347864b06cac69f1634
      id: 2386723107
      PathAndIcons:
      - ElementName: Default Work Unit
        ObjectType: 12
      - ElementName: VOIX
        ObjectType: 4
      - ElementName: Salon7
        ObjectType: 4
      - ElementName: Salon7
        ObjectType: 3
      Path: Default Work Unit\VOIX\Salon7\Salon7
      maxAttenuation: 0
      maxDuration: -1
      minDuration: -1
    - name: VOIX
      guid: c289932d3781d04baa8bae191b7b6d33
      id: 3370469991
      PathAndIcons:
      - ElementName: Default Work Unit
        ObjectType: 12
      - ElementName: VOIX
        ObjectType: 4
      - ElementName: VOIX
        ObjectType: 3
      Path: Default Work Unit\VOIX\VOIX
      maxAttenuation: 0
      maxDuration: -1
      minDuration: -1
  RtpcWwu:
  - PhysicalPath: Game Parameters\Default Work Unit.wwu
    ParentPath: Default Work Unit
    guid: 144f86784339164a90df7105bae3ff14
    GuidInternal: 
    m_lastTime: -8586021125552439352
    List:
    - name: ClaquementLumiere
      guid: aa5107ec97ea1d42bb714aa012ceb77e
      id: 3702044103
      PathAndIcons:
      - ElementName: Default Work Unit
        ObjectType: 12
      - ElementName: ClaquementLumiere
        ObjectType: 13
      Path: Default Work Unit\ClaquementLumiere
    - name: Retrecissement
      guid: 2a216a2f5dca154d93a4bc80c8b6b641
      id: 3314924824
      PathAndIcons:
      - ElementName: Default Work Unit
        ObjectType: 12
      - ElementName: Retrecissement
        ObjectType: 13
      Path: Default Work Unit\Retrecissement
    - name: ReverbPieceHP
      guid: bd0bf6331781a34ebcf64d67c5cfbff9
      id: 2046134637
      PathAndIcons:
      - ElementName: Default Work Unit
        ObjectType: 12
      - ElementName: ReverbPieceHP
        ObjectType: 13
      Path: Default Work Unit\ReverbPieceHP
    - name: TelephoneSalon2
      guid: 90a6cd0900a72847a58d378ac685a73f
      id: 2168182400
      PathAndIcons:
      - ElementName: Default Work Unit
        ObjectType: 12
      - ElementName: TelephoneSalon2
        ObjectType: 13
      Path: Default Work Unit\TelephoneSalon2
    - name: ThemeVolume
      guid: ee2c97c0402a084fb034261fe2e721ee
      id: 4136678742
      PathAndIcons:
      - ElementName: Default Work Unit
        ObjectType: 12
      - ElementName: ThemeVolume
        ObjectType: 13
      Path: Default Work Unit\ThemeVolume
    - name: Volume_MASTER
      guid: 619aa2caa1a5e24fbb762b4e41d0ba5d
      id: 3695994288
      PathAndIcons:
      - ElementName: Default Work Unit
        ObjectType: 12
      - ElementName: Volume_MASTER
        ObjectType: 13
      Path: Default Work Unit\Volume_MASTER
  - PhysicalPath: Game Parameters\Factory Motion.wwu
    ParentPath: Factory Motion
    guid: 225213d7dbd1d042adc0930743567776
    GuidInternal: 
    m_lastTime: -8586021125552439352
    List:
    - name: Playback_Rate
      guid: e37e38283ac11643b9c3db5c521624af
      id: 1524500807
      PathAndIcons:
      - ElementName: Factory Motion
        ObjectType: 12
      - ElementName: Playback_Rate
        ObjectType: 13
      Path: Factory Motion\Playback_Rate
    - name: RPM
      guid: 05aa129177f5fd449f4e4424158129e6
      id: 796049864
      PathAndIcons:
      - ElementName: Factory Motion
        ObjectType: 12
      - ElementName: RPM
        ObjectType: 13
      Path: Factory Motion\RPM
  - PhysicalPath: Game Parameters\Factory SoundSeed Air Game Syncs.wwu
    ParentPath: Factory SoundSeed Air Game Syncs
    guid: 5577163b42fb8b4598bf96f557afb3b9
    GuidInternal: 
    m_lastTime: -8586021125552439352
    List:
    - name: SS_Air_Fear
      guid: 59062ef746431c4ea1b1dab46a05101e
      id: 1351367891
      PathAndIcons:
      - ElementName: Factory SoundSeed Air Game Syncs
        ObjectType: 12
      - ElementName: SS_Air_Fear
        ObjectType: 13
      Path: Factory SoundSeed Air Game Syncs\SS_Air_Fear
    - name: SS_Air_Freefall
      guid: 37fe2d2f9e4f944d83d853cca39781ad
      id: 3002758120
      PathAndIcons:
      - ElementName: Factory SoundSeed Air Game Syncs
        ObjectType: 12
      - ElementName: SS_Air_Freefall
        ObjectType: 13
      Path: Factory SoundSeed Air Game Syncs\SS_Air_Freefall
    - name: SS_Air_Fury
      guid: dc79aea23acaba4696529986c322a87b
      id: 1029930033
      PathAndIcons:
      - ElementName: Factory SoundSeed Air Game Syncs
        ObjectType: 12
      - ElementName: SS_Air_Fury
        ObjectType: 13
      Path: Factory SoundSeed Air Game Syncs\SS_Air_Fury
    - name: SS_Air_Month
      guid: 45b4e209a3c47f44b3ca818a1d925ef7
      id: 2648548617
      PathAndIcons:
      - ElementName: Factory SoundSeed Air Game Syncs
        ObjectType: 12
      - ElementName: SS_Air_Month
        ObjectType: 13
      Path: Factory SoundSeed Air Game Syncs\SS_Air_Month
    - name: SS_Air_Presence
      guid: 1a81b7e32f7b0f49b44f5fe51b468041
      id: 3847924954
      PathAndIcons:
      - ElementName: Factory SoundSeed Air Game Syncs
        ObjectType: 12
      - ElementName: SS_Air_Presence
        ObjectType: 13
      Path: Factory SoundSeed Air Game Syncs\SS_Air_Presence
    - name: SS_Air_RPM
      guid: ab9048a3d5b92645a64d5290c43ef2dc
      id: 822163944
      PathAndIcons:
      - ElementName: Factory SoundSeed Air Game Syncs
        ObjectType: 12
      - ElementName: SS_Air_RPM
        ObjectType: 13
      Path: Factory SoundSeed Air Game Syncs\SS_Air_RPM
    - name: SS_Air_Size
      guid: efeb291393a12e47a38c64668b494879
      id: 3074696722
      PathAndIcons:
      - ElementName: Factory SoundSeed Air Game Syncs
        ObjectType: 12
      - ElementName: SS_Air_Size
        ObjectType: 13
      Path: Factory SoundSeed Air Game Syncs\SS_Air_Size
    - name: SS_Air_Storm
      guid: db8c3fe9d1063747acaf7cd44bbed783
      id: 3715662592
      PathAndIcons:
      - ElementName: Factory SoundSeed Air Game Syncs
        ObjectType: 12
      - ElementName: SS_Air_Storm
        ObjectType: 13
      Path: Factory SoundSeed Air Game Syncs\SS_Air_Storm
    - name: SS_Air_TimeOfDay
      guid: 2ca76f537e8c8b4cae03ef34fdadc314
      id: 3203397129
      PathAndIcons:
      - ElementName: Factory SoundSeed Air Game Syncs
        ObjectType: 12
      - ElementName: SS_Air_TimeOfDay
        ObjectType: 13
      Path: Factory SoundSeed Air Game Syncs\SS_Air_TimeOfDay
    - name: SS_Air_Turbulence
      guid: 197ba8edaa73a0409f192073606db710
      id: 4160247818
      PathAndIcons:
      - ElementName: Factory SoundSeed Air Game Syncs
        ObjectType: 12
      - ElementName: SS_Air_Turbulence
        ObjectType: 13
      Path: Factory SoundSeed Air Game Syncs\SS_Air_Turbulence
  StateWwu:
  - PhysicalPath: States\Default Work Unit.wwu
    ParentPath: Default Work Unit
    guid: 0f1b0c717ef4834cb4e9d1bc868239be
    GuidInternal: 
    m_lastTime: -8586021125552359290
    List:
    - name: NiveauxAngoisses
      guid: 375ef5534baf1145907eb5cc45331c4b
      id: 2708581533
      PathAndIcons:
      - ElementName: Default Work Unit
        ObjectType: 12
      - ElementName: NiveauxAngoisses
        ObjectType: 9
      Path: Default Work Unit\NiveauxAngoisses
      values:
      - name: NiveauAngoisse1
        guid: ca0949b2321fe74d851d398d6cbc48c9
        id: 2520750713
        PathAndIcons:
        - ElementName: NiveauAngoisse1
          ObjectType: 8
      - name: NiveauAngoisse2
        guid: 1b03c68c12e31c428fd1dd90a0289964
        id: 2520750714
        PathAndIcons:
        - ElementName: NiveauAngoisse2
          ObjectType: 8
      - name: NiveauAngoisse3
        guid: 7fe8351f33b7fe4ead58ceeceffc66da
        id: 2520750715
        PathAndIcons:
        - ElementName: NiveauAngoisse3
          ObjectType: 8
      - name: NiveauAngoisse4
        guid: 99572922019c364d95f04b5caa62dab8
        id: 2520750716
        PathAndIcons:
        - ElementName: NiveauAngoisse4
          ObjectType: 8
      - name: NiveauAngoisse5
        guid: 0279e29aa6838d45b55cf5ab1fd7fa25
        id: 2520750717
        PathAndIcons:
        - ElementName: NiveauAngoisse5
          ObjectType: 8
      - name: NiveauAngoisse6
        guid: 7730dd0b88ae154f94976245f1f209f8
        id: 2520750718
        PathAndIcons:
        - ElementName: NiveauAngoisse6
          ObjectType: 8
      - name: NiveauAngoisse7
        guid: 4f186e2b99305242bd5f770de902d0e2
        id: 2520750719
        PathAndIcons:
        - ElementName: NiveauAngoisse7
          ObjectType: 8
      - name: NiveauAngoisse8
        guid: 25a7194a975a64498026645840e1d1f3
        id: 2520750704
        PathAndIcons:
        - ElementName: NiveauAngoisse8
          ObjectType: 8
      - name: None
        guid: 5975ff0cb877cb498668dfc364161cb9
        id: 748895195
        PathAndIcons:
        - ElementName: None
          ObjectType: 8
      - name: Salle5
        guid: 8a796eb65b053c4dbdc5da13bb8bbd2a
        id: 2571129851
        PathAndIcons:
        - ElementName: Salle5
          ObjectType: 8
      ValueGuids: []
      ValueIcons: []
      valuesInternal: []
    - name: PHONO_NiveauxAngoisses
      guid: 3089af63bd6b8445a40f3bdac934f638
      id: 3912100548
      PathAndIcons:
      - ElementName: Default Work Unit
        ObjectType: 12
      - ElementName: PHONO_NiveauxAngoisses
        ObjectType: 9
      Path: Default Work Unit\PHONO_NiveauxAngoisses
      values:
      - name: None
        guid: 147707beb1de504fa1c1c24811454fd1
        id: 748895195
        PathAndIcons:
        - ElementName: None
          ObjectType: 8
      - name: PHONO_NiveauAngoisse1
        guid: 19de8227e286234c973f6abd63bf3851
        id: 786463466
        PathAndIcons:
        - ElementName: PHONO_NiveauAngoisse1
          ObjectType: 8
      - name: PHONO_NiveauAngoisse2_1
        guid: 9f1c47aed0dd754184f12a560cf534bf
        id: 2306284749
        PathAndIcons:
        - ElementName: PHONO_NiveauAngoisse2_1
          ObjectType: 8
      - name: PHONO_NiveauAngoisse2_2
        guid: e6d9eb032423a44d97642df6165d7691
        id: 2306284750
        PathAndIcons:
        - ElementName: PHONO_NiveauAngoisse2_2
          ObjectType: 8
      - name: PHONO_NiveauAngoisse3_1
        guid: 9e2ee9c6f3d2c34eb2fca61e98dd6654
        id: 3379905300
        PathAndIcons:
        - ElementName: PHONO_NiveauAngoisse3_1
          ObjectType: 8
      - name: PHONO_NiveauAngoisse3_2
        guid: 98e17f4a207e6a4680238d7460975db6
        id: 3379905303
        PathAndIcons:
        - ElementName: PHONO_NiveauAngoisse3_2
          ObjectType: 8
      - name: PHONO_NiveauAngoisse4
        guid: 1b589c7ec0fb5746a3684240ffac1731
        id: 786463471
        PathAndIcons:
        - ElementName: PHONO_NiveauAngoisse4
          ObjectType: 8
      - name: PHONO_NiveauAngoisse5
        guid: 7246cd9dfa5cf44b870c6d9b079a772d
        id: 786463470
        PathAndIcons:
        - ElementName: PHONO_NiveauAngoisse5
          ObjectType: 8
      - name: PHONO_NiveauAngoisse6_1
        guid: fc3d89a34cb1d94e8a742d2c3b2ab6c7
        id: 2306976361
        PathAndIcons:
        - ElementName: PHONO_NiveauAngoisse6_1
          ObjectType: 8
      - name: PHONO_NiveauAngoisse6_2
        guid: 9f7b3b0dbc1163468f01d7462982a572
        id: 2306976362
        PathAndIcons:
        - ElementName: PHONO_NiveauAngoisse6_2
          ObjectType: 8
      - name: PHONO_NiveauAngoisse7
        guid: d402720d2b93a44289231873376f9e74
        id: 786463468
        PathAndIcons:
        - ElementName: PHONO_NiveauAngoisse7
          ObjectType: 8
      - name: PHONO_NiveauAngoisse8
        guid: cc96e336b4a73149bded43f49c381c03
        id: 786463459
        PathAndIcons:
        - ElementName: PHONO_NiveauAngoisse8
          ObjectType: 8
      - name: PHONO_Salle5
        guid: 732ba09024dfd34fa47a21a709643cdb
        id: 2395659098
        PathAndIcons:
        - ElementName: PHONO_Salle5
          ObjectType: 8
      ValueGuids: []
      ValueIcons: []
      valuesInternal: []
  SwitchWwu:
  - PhysicalPath: Switches\Default Work Unit.wwu
    ParentPath: Default Work Unit
    guid: ff95139324f5c44d8ee275418f5670af
    GuidInternal: 
    m_lastTime: -8586021125552359290
    List:
    - name: TableauFocal
      guid: 2323704cdd56d648a4795b9294a26f1a
      id: 3691366952
      PathAndIcons:
      - ElementName: Default Work Unit
        ObjectType: 12
      - ElementName: TableauFocal
        ObjectType: 11
      Path: Default Work Unit\TableauFocal
      values:
      - name: Fail
        guid: d485e1d80abff34591bd200bb45129ed
        id: 2596272617
        PathAndIcons:
        - ElementName: Fail
          ObjectType: 10
      - name: Good
        guid: 7c4a36a92b8f37429ff8952ac3774960
        id: 668632890
        PathAndIcons:
        - ElementName: Good
          ObjectType: 10
      ValueGuids: []
      ValueIcons: []
      valuesInternal: []
  TriggerWwu:
  - PhysicalPath: Triggers\Default Work Unit.wwu
    ParentPath: Default Work Unit
    guid: 6e8ad86b0e6e0f46bab2e8d98f5e94db
    GuidInternal: 
    m_lastTime: -8586021125552349279
    List: []
  ExpandedItems:
  - /Wwise_Factory
  - /Wwise_Factory/Events
  - /Wwise_Factory/Events/Default Work Unit
  - /Wwise_Factory/Events/Default Work Unit/FOLEYS
  - /Wwise_Factory/Events/Default Work Unit/FOLEYS/Fol_Porte
  autoPopulateEnabled: 1
  CurrentPluginConfig: 
