%YAML 1.1
%TAG !u! tag:unity3d.com,2011:
--- !u!1001 &3237676083523498306
PrefabInstance:
  m_ObjectHideFlags: 0
  serializedVersion: 2
  m_Modification:
    m_TransformParent: {fileID: 0}
    m_Modifications:
    - target: {fileID: 2185820285956166516, guid: 0976d3870ec2b7c4b8d468158ccc34df,
        type: 3}
      propertyPath: m_Name
      value: Wall_Simple_Geo Variant Variant
      objectReference: {fileID: 0}
    - target: {fileID: 2886471052200010087, guid: 0976d3870ec2b7c4b8d468158ccc34df,
        type: 3}
      propertyPath: m_LocalPosition.x
      value: 7.4380455
      objectReference: {fileID: 0}
    - target: {fileID: 2886471052200010087, guid: 0976d3870ec2b7c4b8d468158ccc34df,
        type: 3}
      propertyPath: m_LocalPosition.y
      value: -10.550236
      objectReference: {fileID: 0}
    - target: {fileID: 2886471052200010087, guid: 0976d3870ec2b7c4b8d468158ccc34df,
        type: 3}
      propertyPath: m_LocalPosition.z
      value: -2.0851562
      objectReference: {fileID: 0}
    - target: {fileID: 2886471052200010087, guid: 0976d3870ec2b7c4b8d468158ccc34df,
        type: 3}
      propertyPath: m_LocalRotation.x
      value: -0
      objectReference: {fileID: 0}
    - target: {fileID: 2886471052200010087, guid: 0976d3870ec2b7c4b8d468158ccc34df,
        type: 3}
      propertyPath: m_LocalRotation.y
      value: 1
      objectReference: {fileID: 0}
    - target: {fileID: 2886471052200010087, guid: 0976d3870ec2b7c4b8d468158ccc34df,
        type: 3}
      propertyPath: m_LocalRotation.z
      value: -0
      objectReference: {fileID: 0}
    - target: {fileID: 2886471052200010087, guid: 0976d3870ec2b7c4b8d468158ccc34df,
        type: 3}
      propertyPath: m_LocalRotation.w
      value: 0
      objectReference: {fileID: 0}
    - target: {fileID: 2886471052200010087, guid: 0976d3870ec2b7c4b8d468158ccc34df,
        type: 3}
      propertyPath: m_RootOrder
      value: 0
      objectReference: {fileID: 0}
    - target: {fileID: 2886471052200010087, guid: 0976d3870ec2b7c4b8d468158ccc34df,
        type: 3}
      propertyPath: m_LocalEulerAnglesHint.x
      value: 0
      objectReference: {fileID: 0}
    - target: {fileID: 2886471052200010087, guid: 0976d3870ec2b7c4b8d468158ccc34df,
        type: 3}
      propertyPath: m_LocalEulerAnglesHint.y
      value: 180
      objectReference: {fileID: 0}
    - target: {fileID: 2886471052200010087, guid: 0976d3870ec2b7c4b8d468158ccc34df,
        type: 3}
      propertyPath: m_LocalEulerAnglesHint.z
      value: 0
      objectReference: {fileID: 0}
    m_RemovedComponents: []
  m_SourcePrefab: {fileID: 100100000, guid: 0976d3870ec2b7c4b8d468158ccc34df, type: 3}
