%YAML 1.1
%TAG !u! tag:unity3d.com,2011:
--- !u!1001 &305734448416317435
PrefabInstance:
  m_ObjectHideFlags: 0
  serializedVersion: 2
  m_Modification:
    m_TransformParent: {fileID: 0}
    m_Modifications:
    - target: {fileID: 3849326695924951294, guid: 32e49cea06bc70443ae7dd0ad0dc0887,
        type: 3}
      propertyPath: m_Name
      value: Frame_Painting_Small_Down
      objectReference: {fileID: 0}
    - target: {fileID: 3964973535736457792, guid: 32e49cea06bc70443ae7dd0ad0dc0887,
        type: 3}
      propertyPath: m_RootOrder
      value: 0
      objectReference: {fileID: 0}
    - target: {fileID: 3964973535736457792, guid: 32e49cea06bc70443ae7dd0ad0dc0887,
        type: 3}
      propertyPath: m_LocalEulerAnglesHint.x
      value: 0
      objectReference: {fileID: 0}
    - target: {fileID: 3964973535736457792, guid: 32e49cea06bc70443ae7dd0ad0dc0887,
        type: 3}
      propertyPath: m_LocalEulerAnglesHint.y
      value: 0
      objectReference: {fileID: 0}
    - target: {fileID: 3964973535736457792, guid: 32e49cea06bc70443ae7dd0ad0dc0887,
        type: 3}
      propertyPath: m_LocalEulerAnglesHint.z
      value: 0
      objectReference: {fileID: 0}
    m_RemovedComponents: []
  m_SourcePrefab: {fileID: 100100000, guid: 32e49cea06bc70443ae7dd0ad0dc0887, type: 3}
