%YAML 1.1
%TAG !u! tag:unity3d.com,2011:
--- !u!114 &11400000
MonoBehaviour:
  m_ObjectHideFlags: 0
  m_CorrespondingSourceObject: {fileID: 0}
  m_PrefabInstance: {fileID: 0}
  m_PrefabAsset: {fileID: 0}
  m_GameObject: {fileID: 0}
  m_Enabled: 1
  m_EditorHideFlags: 0
  m_Script: {fileID: 11500000, guid: a3c8277ca9eb40140a64e21ba4227a74, type: 3}
  m_Name: 5.3-UC
  m_EditorClassIdentifier: 
  approxDuration: 0
  lineInfos:
  - delay: 2
    duration: 8
    text: The issue we encountered then were related to the public opinion.
  - delay: 0
    duration: 7.5
    text: "Between the beginning of the mission and its supposed end, the number
      of Frame\u2019s discoveries had been increasing dramatically..."
  - delay: 0
    duration: 4.5
    text: ...but we did not realise the extent of the danger they represented.
  - delay: 0
    duration: 8
    text: Civilians were pouring in the excavation sites and many people were standing
      by the Frames to see or touch them.
  - delay: 1
    duration: 4
    text: "It soon became some sort of pilgrimage\u2026"
  - delay: 2
    duration: 9
    text: The authorities severley repressed those "Pilgrims", but... for reason
      unknown at the time, they ketp on pouring, day after day.
  - delay: 0
    duration: 7
    text: The issue was that we lost very quickly the tracks of our research units
      in the "Frames".
  - delay: 0
    duration: 3
    text: We aborted the mission...
  - delay: 0
    duration: 8
    text: ...and called back the units we still had tracks of... But they were in
      a state very difficult to describe.
  - delay: 0
    duration: 7
    text: Not mentioning their physical state ; their mental state was unthinkably
      critical.
  - delay: 0
    duration: 7
    text: We had no way to understand the origin of their absences and sensorial
      hallucinations.
  - delay: 0
    duration: 8
    text: They all talked about a "Voice"... A Song, that attracted them. They were
      speaking as if they were actually...
  - delay: 0
    duration: 4
    text: None of our register made any mention of such a thing.
  - delay: 0
    duration: 4
    text: Until the songs rang on our side...
  - delay: 0
    duration: 6
    text: We then understood that the situation was not and never had been under
      control.
  wwEvent:
    idInternal: 0
    valueGuidInternal: 
    WwiseObjectReference: {fileID: 11400000, guid: 323bb21b7ddafa9428cbe343b2586db0,
      type: 2}
