%YAML 1.1
%TAG !u! tag:unity3d.com,2011:
--- !u!114 &11400000
MonoBehaviour:
  m_ObjectHideFlags: 0
  m_CorrespondingSourceObject: {fileID: 0}
  m_PrefabInstance: {fileID: 0}
  m_PrefabAsset: {fileID: 0}
  m_GameObject: {fileID: 0}
  m_Enabled: 1
  m_EditorHideFlags: 0
  m_Script: {fileID: 11500000, guid: 60ba6a332dd89a74eb40011be168f5dd, type: 3}
  m_Name: PortalUnlit_7
  m_EditorClassIdentifier: 
  materials:
  - {fileID: 2100000, guid: 02a707bd21f22bd41b8c9043664223fd, type: 2}
  - {fileID: 2100000, guid: 02a707bd21f22bd41b8c9043664223fd, type: 2}
  - {fileID: 2100000, guid: 9c77b5e3bb671c547b4e3843a47b3a90, type: 2}
  - {fileID: 2100000, guid: 9c77b5e3bb671c547b4e3843a47b3a90, type: 2}
  - {fileID: 2100000, guid: 304be46d93d31a24aabc291d51dbcc4b, type: 2}
