%YAML 1.1
%TAG !u! tag:unity3d.com,2011:
--- !u!1001 &1760421383945286364
PrefabInstance:
  m_ObjectHideFlags: 0
  serializedVersion: 2
  m_Modification:
    m_TransformParent: {fileID: 0}
    m_Modifications:
    - target: {fileID: 2211024065746768998, guid: cb9b1c976ade3c149b5abdb58f120577,
        type: 3}
      propertyPath: m_LocalPosition.x
      value: 3
      objectReference: {fileID: 0}
    - target: {fileID: 2211024065746768998, guid: cb9b1c976ade3c149b5abdb58f120577,
        type: 3}
      propertyPath: m_LocalPosition.y
      value: 0
      objectReference: {fileID: 0}
    - target: {fileID: 2211024065746768998, guid: cb9b1c976ade3c149b5abdb58f120577,
        type: 3}
      propertyPath: m_LocalPosition.z
      value: -3
      objectReference: {fileID: 0}
    - target: {fileID: 2211024065746768998, guid: cb9b1c976ade3c149b5abdb58f120577,
        type: 3}
      propertyPath: m_LocalRotation.x
      value: -0
      objectReference: {fileID: 0}
    - target: {fileID: 2211024065746768998, guid: cb9b1c976ade3c149b5abdb58f120577,
        type: 3}
      propertyPath: m_LocalRotation.y
      value: -0
      objectReference: {fileID: 0}
    - target: {fileID: 2211024065746768998, guid: cb9b1c976ade3c149b5abdb58f120577,
        type: 3}
      propertyPath: m_LocalRotation.z
      value: -0
      objectReference: {fileID: 0}
    - target: {fileID: 2211024065746768998, guid: cb9b1c976ade3c149b5abdb58f120577,
        type: 3}
      propertyPath: m_LocalRotation.w
      value: 1
      objectReference: {fileID: 0}
    - target: {fileID: 2211024065746768998, guid: cb9b1c976ade3c149b5abdb58f120577,
        type: 3}
      propertyPath: m_RootOrder
      value: 0
      objectReference: {fileID: 0}
    - target: {fileID: 2211024065746768998, guid: cb9b1c976ade3c149b5abdb58f120577,
        type: 3}
      propertyPath: m_LocalEulerAnglesHint.x
      value: 0
      objectReference: {fileID: 0}
    - target: {fileID: 2211024065746768998, guid: cb9b1c976ade3c149b5abdb58f120577,
        type: 3}
      propertyPath: m_LocalEulerAnglesHint.y
      value: 0
      objectReference: {fileID: 0}
    - target: {fileID: 2211024065746768998, guid: cb9b1c976ade3c149b5abdb58f120577,
        type: 3}
      propertyPath: m_LocalEulerAnglesHint.z
      value: 0
      objectReference: {fileID: 0}
    - target: {fileID: 2951119396987987573, guid: cb9b1c976ade3c149b5abdb58f120577,
        type: 3}
      propertyPath: m_Name
      value: Floor_Tile_Geo 5
      objectReference: {fileID: 0}
    - target: {fileID: 3515250240182145705, guid: cb9b1c976ade3c149b5abdb58f120577,
        type: 3}
      propertyPath: m_Materials.Array.data[0]
      value: 
      objectReference: {fileID: 2100000, guid: 7c02fd59a300a7a4ebdb1ce52cf4d54c, type: 2}
    - target: {fileID: 9170632540269110796, guid: cb9b1c976ade3c149b5abdb58f120577,
        type: 3}
      propertyPath: handler.tiles.Array.size
      value: 25
      objectReference: {fileID: 0}
    - target: {fileID: 9170632540269110796, guid: cb9b1c976ade3c149b5abdb58f120577,
        type: 3}
      propertyPath: handler.roomTileset
      value: 
      objectReference: {fileID: 11400000, guid: 322e5c5993acb4f4396d4ffdd5c3f08c,
        type: 2}
    - target: {fileID: 9170632540269110796, guid: cb9b1c976ade3c149b5abdb58f120577,
        type: 3}
      propertyPath: handler.isFloor
      value: 1
      objectReference: {fileID: 0}
    - target: {fileID: 9170632540269110796, guid: cb9b1c976ade3c149b5abdb58f120577,
        type: 3}
      propertyPath: handler.dimensions.x
      value: 1.5
      objectReference: {fileID: 0}
    - target: {fileID: 9170632540269110796, guid: cb9b1c976ade3c149b5abdb58f120577,
        type: 3}
      propertyPath: handler.dimensions.y
      value: 0.049999997
      objectReference: {fileID: 0}
    - target: {fileID: 9170632540269110796, guid: cb9b1c976ade3c149b5abdb58f120577,
        type: 3}
      propertyPath: handler.dimensions.z
      value: 1.5
      objectReference: {fileID: 0}
    - target: {fileID: 9170632540269110796, guid: cb9b1c976ade3c149b5abdb58f120577,
        type: 3}
      propertyPath: handler.wallDimensions.x
      value: 1.5
      objectReference: {fileID: 0}
    - target: {fileID: 9170632540269110796, guid: cb9b1c976ade3c149b5abdb58f120577,
        type: 3}
      propertyPath: handler.wallDimensions.y
      value: 3
      objectReference: {fileID: 0}
    - target: {fileID: 9170632540269110796, guid: cb9b1c976ade3c149b5abdb58f120577,
        type: 3}
      propertyPath: handler.wallDimensions.z
      value: 0.19999999
      objectReference: {fileID: 0}
    - target: {fileID: 9170632540269110796, guid: cb9b1c976ade3c149b5abdb58f120577,
        type: 3}
      propertyPath: handler.roomDimensions.x
      value: 7.5
      objectReference: {fileID: 0}
    - target: {fileID: 9170632540269110796, guid: cb9b1c976ade3c149b5abdb58f120577,
        type: 3}
      propertyPath: handler.roomDimensions.z
      value: -7.499996
      objectReference: {fileID: 0}
    - target: {fileID: 9170632540269110796, guid: cb9b1c976ade3c149b5abdb58f120577,
        type: 3}
      propertyPath: handler.tiles.Array.data[24].gameObject
      value: 
      objectReference: {fileID: 3502180514435208361}
    - target: {fileID: 9170632540269110796, guid: cb9b1c976ade3c149b5abdb58f120577,
        type: 3}
      propertyPath: handler.initialized
      value: 1
      objectReference: {fileID: 0}
    m_RemovedComponents: []
  m_SourcePrefab: {fileID: 100100000, guid: cb9b1c976ade3c149b5abdb58f120577, type: 3}
--- !u!1 &3502180514435208361 stripped
GameObject:
  m_CorrespondingSourceObject: {fileID: 2951119396987987573, guid: cb9b1c976ade3c149b5abdb58f120577,
    type: 3}
  m_PrefabInstance: {fileID: 1760421383945286364}
  m_PrefabAsset: {fileID: 0}
