%YAML 1.1
%TAG !u! tag:unity3d.com,2011:
--- !u!114 &11400000
MonoBehaviour:
  m_ObjectHideFlags: 0
  m_CorrespondingSourceObject: {fileID: 0}
  m_PrefabInstance: {fileID: 0}
  m_PrefabAsset: {fileID: 0}
  m_GameObject: {fileID: 0}
  m_Enabled: 1
  m_EditorHideFlags: 0
  m_Script: {fileID: 11500000, guid: da5dd2db0bd24234b8d6ef20fe616dfa, type: 3}
  m_Name: D8E185D4-BF0A-45F3-91BD-200BB45129ED
  m_EditorClassIdentifier: 
  objectName: Fail
  id: 2596272617
  guid: D8E185D4-BF0A-45F3-91BD-200BB45129ED
  WwiseSwitchGroupReference: {fileID: 11400000, guid: 5673aed240f8d9c4d9805a0177829b92,
    type: 2}
