%YAML 1.1
%TAG !u! tag:unity3d.com,2011:
--- !u!21 &2100000
Material:
  serializedVersion: 6
  m_ObjectHideFlags: 0
  m_CorrespondingSourceObject: {fileID: 0}
  m_PrefabInstance: {fileID: 0}
  m_PrefabAsset: {fileID: 0}
  m_Name: GlitchPSP
  m_Shader: {fileID: -6465566751694194690, guid: 48f867c0a2c977e418548250ba210af0,
    type: 3}
  m_ShaderKeywords: 
  m_LightmapFlags: 4
  m_EnableInstancingVariants: 0
  m_DoubleSidedGI: 0
  m_CustomRenderQueue: -1
  stringTagMap:
    MotionVector: User
  disabledShaderPasses:
  - MOTIONVECTORS
  m_SavedProperties:
    serializedVersion: 3
    m_TexEnvs:
    - Tex:
        m_Texture: {fileID: 2800000, guid: 9df1ece1479d7d1478136626ad6c2f4e, type: 3}
        m_Scale: {x: 1, y: 1}
        m_Offset: {x: 0, y: 0}
    - _NormalFromTexture_9F002A32_Texture_0:
        m_Texture: {fileID: 2800000, guid: 0611ba08affc2054bb050b99444a7533, type: 3}
        m_Scale: {x: 1, y: 1}
        m_Offset: {x: 0, y: 0}
    - _Texture2DAsset_70FA2A0E_Out_0:
        m_Texture: {fileID: 2800000, guid: aab8c63deb2d80e449d613ab6c4843d9, type: 3}
        m_Scale: {x: 1, y: 1}
        m_Offset: {x: 0, y: 0}
    m_Floats:
    - Alpha: 0
    m_Colors:
    - ColorMap: {r: 1, g: 1, b: 1, a: 0}
